other,filename,image1_filename_url,text1,image1
M158508,File:Peter Paul Rubens 023.jpg,http://commons.wikimedia.org/wiki/Special:FilePath/Peter%20Paul%20Rubens%20023.jpg,"""Detail of a Rubens painting showing a group of people.""",https://upload.wikimedia.org/wikipedia/commons/thumb/2/2c/Peter_Paul_Rubens_023.jpg/415px-Peter_Paul_Rubens_023.jpg
M158505,File:Peter Paul Rubens 020.jpg,http://commons.wikimedia.org/wiki/Special:FilePath/Peter%20Paul%20Rubens%20020.jpg,Detail of horses from a painting by Peter Paul Rubens.,https://upload.wikimedia.org/wikipedia/commons/thumb/2/24/Peter_Paul_Rubens_020.jpg/403px-Peter_Paul_Rubens_020.jpg
M158597,File:Peter Paul Rubens 106.jpg,http://commons.wikimedia.org/wiki/Special:FilePath/Peter%20Paul%20Rubens%20106.jpg,"""Portrait of a man and a woman in elaborate clothing by Peter Paul Rubens.""",https://upload.wikimedia.org/wikipedia/commons/thumb/9/9f/Peter_Paul_Rubens_106.jpg/771px-Peter_Paul_Rubens_106.jpg
M2095601,File:Peter Paul Rubens 105 1.JPG,http://commons.wikimedia.org/wiki/Special:FilePath/Peter%20Paul%20Rubens%20105%201.JPG,Detail of a Rubens painting showing clasped hands with a ring and a lace cuff.,https://upload.wikimedia.org/wikipedia/commons/8/8d/Peter_Paul_Rubens_105_1.JPG
M3837983,File:Peter Paul Rubens 105-Isabella-crop.jpg,http://commons.wikimedia.org/wiki/Special:FilePath/Peter%20Paul%20Rubens%20105-Isabella-crop.jpg,Detail of a Rubens painting showing a woman with a hat and ruffled collar.,https://upload.wikimedia.org/wikipedia/commons/thumb/c/c5/Peter_Paul_Rubens_105-Isabella-crop.jpg/234px-Peter_Paul_Rubens_105-Isabella-crop.jpg
M3839012,File:Peter Paul Rubens 105-Isabella-Kopf gesamt.jpg,http://commons.wikimedia.org/wiki/Special:FilePath/Peter%20Paul%20Rubens%20105-Isabella-Kopf%20gesamt.jpg,Detail of a Rubens painting featuring a woman in elaborate Renaissance attire.,https://upload.wikimedia.org/wikipedia/commons/thumb/2/21/Peter_Paul_Rubens_105-Isabella-Kopf_gesamt.jpg/400px-Peter_Paul_Rubens_105-Isabella-Kopf_gesamt.jpg
M6675423,File:Vision of St. Ignatius of Loyola.jpg,http://commons.wikimedia.org/wiki/Special:FilePath/Vision%20of%20St.%20Ignatius%20of%20Loyola.jpg,"""Detail of a Rubens painting depicting a priest preaching.""",https://upload.wikimedia.org/wikipedia/commons/a/a3/Vision_of_St._Ignatius_of_Loyola.jpg
M10231409,File:Rubens Coronation of Mary 01.jpg,http://commons.wikimedia.org/wiki/Special:FilePath/Rubens%20Coronation%20of%20Mary%2001.jpg,"""Detail of cherubs from a painting by Peter Paul Rubens.""",https://upload.wikimedia.org/wikipedia/commons/thumb/e/e5/Rubens_Coronation_of_Mary_01.jpg/400px-Rubens_Coronation_of_Mary_01.jpg
M10436021,File:Rubens - La Chasse au tigre (detail 1).jpg,http://commons.wikimedia.org/wiki/Special:FilePath/Rubens%20-%20La%20Chasse%20au%20tigre%20%28detail%201%29.jpg,Detail of a painting by Peter Paul Rubens depicting a man with a tiger.,https://upload.wikimedia.org/wikipedia/commons/thumb/a/aa/Rubens_-_La_Chasse_au_tigre_%28detail_1%29.jpg/800px-Rubens_-_La_Chasse_au_tigre_%28detail_1%29.jpg
M10436048,File:Rubens - La Chasse au tigre (detail 2).jpg,http://commons.wikimedia.org/wiki/Special:FilePath/Rubens%20-%20La%20Chasse%20au%20tigre%20%28detail%202%29.jpg,"Detail of a Rubens painting depicting a man in action, filename: https://commons.wikimedia.org/entity/M10436048.",https://upload.wikimedia.org/wikipedia/commons/thumb/5/56/Rubens_-_La_Chasse_au_tigre_%28detail_2%29.jpg/800px-Rubens_-_La_Chasse_au_tigre_%28detail_2%29.jpg
M11706130,File:Peter Paul Rubens - De kruisoprichting4.JPG,http://commons.wikimedia.org/wiki/Special:FilePath/Peter%20Paul%20Rubens%20-%20De%20kruisoprichting4.JPG,Detail of a painting by Peter Paul Rubens depicting a woman holding a child.,https://upload.wikimedia.org/wikipedia/commons/thumb/7/77/Peter_Paul_Rubens_-_De_kruisoprichting4.JPG/721px-Peter_Paul_Rubens_-_De_kruisoprichting4.JPG
M11771098,File:Le Chapeau de Paille by Peter Paul Rubens detail.jpg,http://commons.wikimedia.org/wiki/Special:FilePath/Le%20Chapeau%20de%20Paille%20by%20Peter%20Paul%20Rubens%20detail.jpg,Close-up detail from a painting by Peter Paul Rubens.,https://upload.wikimedia.org/wikipedia/commons/2/2b/Le_Chapeau_de_Paille_by_Peter_Paul_Rubens_detail.jpg
M15417501,File:Peter Paul Rubens - The Adoration of the Magi (detail) - WGA20246.jpg,http://commons.wikimedia.org/wiki/Special:FilePath/Peter%20Paul%20Rubens%20-%20The%20Adoration%20of%20the%20Magi%20%28detail%29%20-%20WGA20246.jpg,"""Detail from a painting by Peter Paul Rubens""",https://upload.wikimedia.org/wikipedia/commons/thumb/e/e1/Peter_Paul_Rubens_-_The_Adoration_of_the_Magi_%28detail%29_-_WGA20246.jpg/478px-Peter_Paul_Rubens_-_The_Adoration_of_the_Magi_%28detail%29_-_WGA20246.jpg
M15417568,File:Peter Paul Rubens - The Judgment of Paris (detail) - WGA20313.jpg,http://commons.wikimedia.org/wiki/Special:FilePath/Peter%20Paul%20Rubens%20-%20The%20Judgment%20of%20Paris%20%28detail%29%20-%20WGA20313.jpg,"""Mercury and Argus, a painting by Peter Paul Rubens""",https://upload.wikimedia.org/wikipedia/commons/thumb/7/75/Peter_Paul_Rubens_-_The_Judgment_of_Paris_%28detail%29_-_WGA20313.jpg/454px-Peter_Paul_Rubens_-_The_Judgment_of_Paris_%28detail%29_-_WGA20313.jpg
M15417580,File:Peter Paul Rubens - Diana and her Nymphs Surprised by the Fauns (detail) - WGA20320.jpg,http://commons.wikimedia.org/wiki/Special:FilePath/Peter%20Paul%20Rubens%20-%20Diana%20and%20her%20Nymphs%20Surprised%20by%20the%20Fauns%20%28detail%29%20-%20WGA20320.jpg,"""Peter Paul Rubens - Nymphs and Satyrs""",https://upload.wikimedia.org/wikipedia/commons/thumb/b/bb/Peter_Paul_Rubens_-_Diana_and_her_Nymphs_Surprised_by_the_Fauns_%28detail%29_-_WGA20320.jpg/697px-Peter_Paul_Rubens_-_Diana_and_her_Nymphs_Surprised_by_the_Fauns_%28detail%29_-_WGA20320.jpg
M15417579,File:Peter Paul Rubens - Diana and her Nymphs Surprised by the Fauns (detail) - WGA20319.jpg,http://commons.wikimedia.org/wiki/Special:FilePath/Peter%20Paul%20Rubens%20-%20Diana%20and%20her%20Nymphs%20Surprised%20by%20the%20Fauns%20%28detail%29%20-%20WGA20319.jpg,"""Nymphs and Satyrs in a wooded landscape.""",https://upload.wikimedia.org/wikipedia/commons/thumb/1/1e/Peter_Paul_Rubens_-_Diana_and_her_Nymphs_Surprised_by_the_Fauns_%28detail%29_-_WGA20319.jpg/705px-Peter_Paul_Rubens_-_Diana_and_her_Nymphs_Surprised_by_the_Fauns_%28detail%29_-_WGA20319.jpg
M15417601,File:Peter Paul Rubens - The Consequences of War (detail) - WGA20335.jpg,http://commons.wikimedia.org/wiki/Special:FilePath/Peter%20Paul%20Rubens%20-%20The%20Consequences%20of%20War%20%28detail%29%20-%20WGA20335.jpg,"""Detail of Peter Paul Rubens' painting 'The Consequences of War' depicting Venus trying to restrain Mars.""",https://upload.wikimedia.org/wikipedia/commons/thumb/a/a1/Peter_Paul_Rubens_-_The_Consequences_of_War_%28detail%29_-_WGA20335.jpg/452px-Peter_Paul_Rubens_-_The_Consequences_of_War_%28detail%29_-_WGA20335.jpg
M15464420,File:Peter Paul Rubens - The Deposition (detail) - WGA20178.jpg,http://commons.wikimedia.org/wiki/Special:FilePath/Peter%20Paul%20Rubens%20-%20The%20Deposition%20%28detail%29%20-%20WGA20178.jpg,"""Detail of a Rubens painting featuring a sorrowful woman.""",https://upload.wikimedia.org/wikipedia/commons/thumb/c/ca/Peter_Paul_Rubens_-_The_Deposition_%28detail%29_-_WGA20178.jpg/348px-Peter_Paul_Rubens_-_The_Deposition_%28detail%29_-_WGA20178.jpg
M15464500,File:Peter Paul Rubens - Hero and Leander (detail) - WGA20275.jpg,http://commons.wikimedia.org/wiki/Special:FilePath/Peter%20Paul%20Rubens%20-%20Hero%20and%20Leander%20%28detail%29%20-%20WGA20275.jpg,"""Detail of Rubens' painting depicting a mythological scene.""",https://upload.wikimedia.org/wikipedia/commons/thumb/0/0b/Peter_Paul_Rubens_-_Hero_and_Leander_%28detail%29_-_WGA20275.jpg/618px-Peter_Paul_Rubens_-_Hero_and_Leander_%28detail%29_-_WGA20275.jpg
M15464522,File:Peter Paul Rubens - Diana Returning from Hunt (detail) - WGA20292.jpg,http://commons.wikimedia.org/wiki/Special:FilePath/Peter%20Paul%20Rubens%20-%20Diana%20Returning%20from%20Hunt%20%28detail%29%20-%20WGA20292.jpg,"""A detail from a painting by Peter Paul Rubens.""",https://upload.wikimedia.org/wikipedia/commons/thumb/d/d3/Peter_Paul_Rubens_-_Diana_Returning_from_Hunt_%28detail%29_-_WGA20292.jpg/490px-Peter_Paul_Rubens_-_Diana_Returning_from_Hunt_%28detail%29_-_WGA20292.jpg
M15464538,File:Peter Paul Rubens - The Triumph of Victory (detail) - WGA20329.jpg,http://commons.wikimedia.org/wiki/Special:FilePath/Peter%20Paul%20Rubens%20-%20The%20Triumph%20of%20Victory%20%28detail%29%20-%20WGA20329.jpg,"Detail of Peter Paul Rubens' painting ""Justice.",https://upload.wikimedia.org/wikipedia/commons/thumb/6/69/Peter_Paul_Rubens_-_The_Triumph_of_Victory_%28detail%29_-_WGA20329.jpg/494px-Peter_Paul_Rubens_-_The_Triumph_of_Victory_%28detail%29_-_WGA20329.jpg
M15500656,File:Peter Paul Rubens - Perseus and Andromeda (detail) - WGA20305.jpg,http://commons.wikimedia.org/wiki/Special:FilePath/Peter%20Paul%20Rubens%20-%20Perseus%20and%20Andromeda%20%28detail%29%20-%20WGA20305.jpg,Detail of a Rubens painting featuring Pegasus and putti.,https://upload.wikimedia.org/wikipedia/commons/thumb/c/c2/Peter_Paul_Rubens_-_Perseus_and_Andromeda_%28detail%29_-_WGA20305.jpg/405px-Peter_Paul_Rubens_-_Perseus_and_Andromeda_%28detail%29_-_WGA20305.jpg
M23780688,File:Rubens - La Chasse au tigre (léopard) 2012-09-15.JPG,http://commons.wikimedia.org/wiki/Special:FilePath/Rubens%20-%20La%20Chasse%20au%20tigre%20%28l%C3%A9opard%29%202012-09-15.JPG,Detail of Peter Paul Rubens' painting depicting a fallen jaguar.,https://upload.wikimedia.org/wikipedia/commons/thumb/c/c9/Rubens_-_La_Chasse_au_tigre_%28l%C3%A9opard%29_2012-09-15.JPG/800px-Rubens_-_La_Chasse_au_tigre_%28l%C3%A9opard%29_2012-09-15.JPG
M23780689,File:Rubens - La Chasse au tigre (homme à terre) 2012-09-15.JPG,http://commons.wikimedia.org/wiki/Special:FilePath/Rubens%20-%20La%20Chasse%20au%20tigre%20%28homme%20%C3%A0%20terre%29%202012-09-15.JPG,"Detail of ""The Fall of the Titans"" by Peter Paul Rubens.",https://upload.wikimedia.org/wikipedia/commons/thumb/a/a8/Rubens_-_La_Chasse_au_tigre_%28homme_%C3%A0_terre%29_2012-09-15.JPG/800px-Rubens_-_La_Chasse_au_tigre_%28homme_%C3%A0_terre%29_2012-09-15.JPG
M23780690,File:Rubens - La Chasse au tigre (tête) 2012-09-15.JPG,http://commons.wikimedia.org/wiki/Special:FilePath/Rubens%20-%20La%20Chasse%20au%20tigre%20%28t%C3%AAte%29%202012-09-15.JPG,"""Detail of a bearded man from a painting by Peter Paul Rubens.""",https://upload.wikimedia.org/wikipedia/commons/thumb/b/b2/Rubens_-_La_Chasse_au_tigre_%28t%C3%AAte%29_2012-09-15.JPG/450px-Rubens_-_La_Chasse_au_tigre_%28t%C3%AAte%29_2012-09-15.JPG
M26756592,File:0 Vénus et Cupidon - P.P. Rubens - Musée Thyssen-Bornemisza (4).JPG,http://commons.wikimedia.org/wiki/Special:FilePath/0%20V%C3%A9nus%20et%20Cupidon%20-%20P.P.%20Rubens%20-%20Mus%C3%A9e%20Thyssen-Bornemisza%20%284%29.JPG,"Detail of a painting by Peter Paul Rubens, depicting a woman and a cherub with a mirror.",https://upload.wikimedia.org/wikipedia/commons/thumb/0/0d/0_V%C3%A9nus_et_Cupidon_-_P.P._Rubens_-_Mus%C3%A9e_Thyssen-Bornemisza_%284%29.JPG/800px-0_V%C3%A9nus_et_Cupidon_-_P.P._Rubens_-_Mus%C3%A9e_Thyssen-Bornemisza_%284%29.JPG
M26757141,File:0 Vénus et Cupidon - P.P. Rubens - Musée Thyssen-Bornemisza (5).JPG,http://commons.wikimedia.org/wiki/Special:FilePath/0%20V%C3%A9nus%20et%20Cupidon%20-%20P.P.%20Rubens%20-%20Mus%C3%A9e%20Thyssen-Bornemisza%20%285%29.JPG,"""Detail of a Rubens painting showing a cherub with a mirror.""",https://upload.wikimedia.org/wikipedia/commons/thumb/4/4e/0_V%C3%A9nus_et_Cupidon_-_P.P._Rubens_-_Mus%C3%A9e_Thyssen-Bornemisza_%285%29.JPG/399px-0_V%C3%A9nus_et_Cupidon_-_P.P._Rubens_-_Mus%C3%A9e_Thyssen-Bornemisza_%285%29.JPG
M46470369,"File:Heráclito, por Rubens (Museo Nacional de Escultura de Valladolid).JPG",http://commons.wikimedia.org/wiki/Special:FilePath/Her%C3%A1clito%2C%20por%20Rubens%20%28Museo%20Nacional%20de%20Escultura%20de%20Valladolid%29.JPG,"""Detail from a Rubens painting, showing a close-up of a man's face.""",https://upload.wikimedia.org/wikipedia/commons/thumb/7/7c/Her%C3%A1clito%2C_por_Rubens_%28Museo_Nacional_de_Escultura_de_Valladolid%29.JPG/800px-Her%C3%A1clito%2C_por_Rubens_%28Museo_Nacional_de_Escultura_de_Valladolid%29.JPG
M61598891,File:Rubens Fall of the damned (detail).jpg,http://commons.wikimedia.org/wiki/Special:FilePath/Rubens%20Fall%20of%20the%20damned%20%28detail%29.jpg,"""Detail of 'The Last Judgment' by Peter Paul Rubens.""",https://upload.wikimedia.org/wikipedia/commons/thumb/5/51/Rubens_Fall_of_the_damned_%28detail%29.jpg/450px-Rubens_Fall_of_the_damned_%28detail%29.jpg
M62338786,File:The Fall of the Damned by Rubens (1621) - Alte Pinakothek - Munich - Germany 2017 (detail).jpg,http://commons.wikimedia.org/wiki/Special:FilePath/The%20Fall%20of%20the%20Damned%20by%20Rubens%20%281621%29%20-%20Alte%20Pinakothek%20-%20Munich%20-%20Germany%202017%20%28detail%29.jpg,"""Detail of 'The Fall of the Damned' by Peter Paul Rubens.""",https://upload.wikimedia.org/wikipedia/commons/thumb/7/73/The_Fall_of_the_Damned_by_Rubens_%281621%29_-_Alte_Pinakothek_-_Munich_-_Germany_2017_%28detail%29.jpg/450px-The_Fall_of_the_Damned_by_Rubens_%281621%29_-_Alte_Pinakothek_-_Munich_-_Germany_2017_%28detail%29.jpg
M62338795,File:The Massacre of the Innocents by Rubens (1638) - Alte Pinakothek - Munich - Germany 2017 (detail).jpg,http://commons.wikimedia.org/wiki/Special:FilePath/The%20Massacre%20of%20the%20Innocents%20by%20Rubens%20%281638%29%20-%20Alte%20Pinakothek%20-%20Munich%20-%20Germany%202017%20%28detail%29.jpg,"""Detail of ""The Massacre of the Innocents"" by Peter Paul Rubens.""",https://upload.wikimedia.org/wikipedia/commons/thumb/4/42/The_Massacre_of_the_Innocents_by_Rubens_%281638%29_-_Alte_Pinakothek_-_Munich_-_Germany_2017_%28detail%29.jpg/400px-The_Massacre_of_the_Innocents_by_Rubens_%281638%29_-_Alte_Pinakothek_-_Munich_-_Germany_2017_%28detail%29.jpg
M65942084,"File:Rubens e bottega, diana e le sue ninfe che partono, 1615 ca. 05 cani.jpg",http://commons.wikimedia.org/wiki/Special:FilePath/Rubens%20e%20bottega%2C%20diana%20e%20le%20sue%20ninfe%20che%20partono%2C%201615%20ca.%2005%20cani.jpg,A detail from a painting by Peter Paul Rubens featuring a dog and a boar.,https://upload.wikimedia.org/wikipedia/commons/thumb/3/3e/Rubens_e_bottega%2C_diana_e_le_sue_ninfe_che_partono%2C_1615_ca._05_cani.jpg/347px-Rubens_e_bottega%2C_diana_e_le_sue_ninfe_che_partono%2C_1615_ca._05_cani.jpg
M65942081,"File:Rubens e bottega, diana e le sue ninfe che partono, 1615 ca. 02 ratto.jpg",http://commons.wikimedia.org/wiki/Special:FilePath/Rubens%20e%20bottega%2C%20diana%20e%20le%20sue%20ninfe%20che%20partono%2C%201615%20ca.%2002%20ratto.jpg,"""Detail of a Rubens painting depicting a satyr and a nymph.""",https://upload.wikimedia.org/wikipedia/commons/thumb/5/5b/Rubens_e_bottega%2C_diana_e_le_sue_ninfe_che_partono%2C_1615_ca._02_ratto.jpg/738px-Rubens_e_bottega%2C_diana_e_le_sue_ninfe_che_partono%2C_1615_ca._02_ratto.jpg
M65942083,"File:Rubens e bottega, diana e le sue ninfe che partono, 1615 ca. 03 cane.jpg",http://commons.wikimedia.org/wiki/Special:FilePath/Rubens%20e%20bottega%2C%20diana%20e%20le%20sue%20ninfe%20che%20partono%2C%201615%20ca.%2003%20cane.jpg,Detail of a painting by Peter Paul Rubens showing a dog interacting with a clothed figure.,https://upload.wikimedia.org/wikipedia/commons/thumb/1/10/Rubens_e_bottega%2C_diana_e_le_sue_ninfe_che_partono%2C_1615_ca._03_cane.jpg/400px-Rubens_e_bottega%2C_diana_e_le_sue_ninfe_che_partono%2C_1615_ca._03_cane.jpg
M66223897,File:Pharisien Rubens.jpg,http://commons.wikimedia.org/wiki/Special:FilePath/Pharisien%20Rubens.jpg,"A detail of a painting by Peter Paul Rubens, depicting two men in elaborate garments.",https://upload.wikimedia.org/wikipedia/commons/thumb/9/92/Pharisien_Rubens.jpg/450px-Pharisien_Rubens.jpg
M95888411,File:Wilhelm Hoffmann Dresdener Galerie Cabinet No. 068.jpg,http://commons.wikimedia.org/wiki/Special:FilePath/Wilhelm%20Hoffmann%20Dresdener%20Galerie%20Cabinet%20No.%20068.jpg,"""Portrait of Rubens' daughter""",https://upload.wikimedia.org/wikipedia/commons/thumb/c/c8/Wilhelm_Hoffmann_Dresdener_Galerie_Cabinet_No._068.jpg/399px-Wilhelm_Hoffmann_Dresdener_Galerie_Cabinet_No._068.jpg
