{"custom_id": "request-1", "method": "POST", "url": "/v1/chat/completions", "body": {"model": "gpt-4o", "messages": [{"role": "system", "content": [{"type": "text", "text": "Write a concise one-line painting description for Wikimedia Commons."}]}, {"role": "user", "content": [{"type": "image_url", "image_url": {"url": "https://upload.wikimedia.org/wikipedia/commons/thumb/6/66/Aert_van_der_Neer_-_Night_Landscape_with_a_River_-_WGA16489.jpg/728px-Aert_van_der_Neer_-_Night_Landscape_with_a_River_-_WGA16489.jpg"}}, {"type": "text", "text": "Filename: \"File:Aert van der Neer - Night Landscape with a River - WGA16489.jpg\". Provide a one-line description, optionally using filename details."}]}], "temperature": 1, "max_tokens": 256, "top_p": 1, "frequency_penalty": 0, "presence_penalty": 0}}
{"custom_id": "request-2", "method": "POST", "url": "/v1/chat/completions", "body": {"model": "gpt-4o", "messages": [{"role": "system", "content": [{"type": "text", "text": "Write a concise one-line painting description for Wikimedia Commons."}]}, {"role": "user", "content": [{"type": "image_url", "image_url": {"url": "https://upload.wikimedia.org/wikipedia/commons/thumb/f/ff/Palamedes_Palamedesz._-_Cavalry_Battle_Scene_-_WGA16881.jpg/800px-Palamedes_Palamedesz._-_Cavalry_Battle_Scene_-_WGA16881.jpg"}}, {"type": "text", "text": "Filename: \"File:Palamedes Palamedesz. - Cavalry Battle Scene - WGA16881.jpg\". Provide a one-line description, optionally using filename details."}]}], "temperature": 1, "max_tokens": 256, "top_p": 1, "frequency_penalty": 0, "presence_penalty": 0}}
{"custom_id": "request-3", "method": "POST", "url": "/v1/chat/completions", "body": {"model": "gpt-4o", "messages": [{"role": "system", "content": [{"type": "text", "text": "Write a concise one-line painting description for Wikimedia Commons."}]}, {"role": "user", "content": [{"type": "image_url", "image_url": {"url": "https://upload.wikimedia.org/wikipedia/commons/thumb/1/15/Cornelis_van_Poelenburch_-_Portrait_of_a_Young_Girl_as_Flora_-_WGA18010.jpg/502px-Cornelis_van_Poelenburch_-_Portrait_of_a_Young_Girl_as_Flora_-_WGA18010.jpg"}}, {"type": "text", "text": "Filename: \"File:Cornelis van Poelenburch - Portrait of a Young Girl as Flora - WGA18010.jpg\". Provide a one-line description, optionally using filename details."}]}], "temperature": 1, "max_tokens": 256, "top_p": 1, "frequency_penalty": 0, "presence_penalty": 0}}
{"custom_id": "request-4", "method": "POST", "url": "/v1/chat/completions", "body": {"model": "gpt-4o", "messages": [{"role": "system", "content": [{"type": "text", "text": "Write a concise one-line painting description for Wikimedia Commons."}]}, {"role": "user", "content": [{"type": "image_url", "image_url": {"url": "https://upload.wikimedia.org/wikipedia/commons/thumb/2/2b/Jan_Porcellis_-_Single-Masted_Damlooper_and_Rowboat_on_a_Breezy_Day_-_WGA18156.jpg/540px-Jan_Porcellis_-_Single-Masted_Damlooper_and_Rowboat_on_a_Breezy_Day_-_WGA18156.jpg"}}, {"type": "text", "text": "Filename: \"File:Jan Porcellis - Single-Masted Damlooper and Rowboat on a Breezy Day - WGA18156.jpg\". Provide a one-line description, optionally using filename details."}]}], "temperature": 1, "max_tokens": 256, "top_p": 1, "frequency_penalty": 0, "presence_penalty": 0}}
{"custom_id": "request-5", "method": "POST", "url": "/v1/chat/completions", "body": {"model": "gpt-4o", "messages": [{"role": "system", "content": [{"type": "text", "text": "Write a concise one-line painting description for Wikimedia Commons."}]}, {"role": "user", "content": [{"type": "image_url", "image_url": {"url": "https://upload.wikimedia.org/wikipedia/commons/thumb/9/93/Giulio_Cesare_Procaccini_-_The_Virgin_and_Child_with_the_Infant_St_John_the_Baptist_and_Attendant_Angels_-_WGA18435.jpg/430px-Giulio_Cesare_Procaccini_-_The_Virgin_and_Child_with_the_Infant_St_John_the_Baptist_and_Attendant_Angels_-_WGA18435.jpg"}}, {"type": "text", "text": "Filename: \"File:Giulio Cesare Procaccini - The Virgin and Child with the Infant St John the Baptist and Attendant Angels - WGA18435.jpg\". Provide a one-line description, optionally using filename details."}]}], "temperature": 1, "max_tokens": 256, "top_p": 1, "frequency_penalty": 0, "presence_penalty": 0}}
{"custom_id": "request-6", "method": "POST", "url": "/v1/chat/completions", "body": {"model": "gpt-4o", "messages": [{"role": "system", "content": [{"type": "text", "text": "Write a concise one-line painting description for Wikimedia Commons."}]}, {"role": "user", "content": [{"type": "image_url", "image_url": {"url": "https://upload.wikimedia.org/wikipedia/commons/thumb/d/df/Salomon_van_Ruysdael_-_Tower_at_the_Road_-_WGA20586.jpg/748px-Salomon_van_Ruysdael_-_Tower_at_the_Road_-_WGA20586.jpg"}}, {"type": "text", "text": "Filename: \"File:Salomon van Ruysdael - Tower at the Road - WGA20586.jpg\". Provide a one-line description, optionally using filename details."}]}], "temperature": 1, "max_tokens": 256, "top_p": 1, "frequency_penalty": 0, "presence_penalty": 0}}
{"custom_id": "request-7", "method": "POST", "url": "/v1/chat/completions", "body": {"model": "gpt-4o", "messages": [{"role": "system", "content": [{"type": "text", "text": "Write a concise one-line painting description for Wikimedia Commons."}]}, {"role": "user", "content": [{"type": "image_url", "image_url": {"url": "https://upload.wikimedia.org/wikipedia/commons/thumb/4/42/Andrea_Sacchi_-_Venus_at_Rest_-_WGA20612.jpg/792px-Andrea_Sacchi_-_Venus_at_Rest_-_WGA20612.jpg"}}, {"type": "text", "text": "Filename: \"File:Andrea Sacchi - Venus at Rest - WGA20612.jpg\". Provide a one-line description, optionally using filename details."}]}], "temperature": 1, "max_tokens": 256, "top_p": 1, "frequency_penalty": 0, "presence_penalty": 0}}
{"custom_id": "request-8", "method": "POST", "url": "/v1/chat/completions", "body": {"model": "gpt-4o", "messages": [{"role": "system", "content": [{"type": "text", "text": "Write a concise one-line painting description for Wikimedia Commons."}]}, {"role": "user", "content": [{"type": "image_url", "image_url": {"url": "https://upload.wikimedia.org/wikipedia/commons/thumb/e/e4/Gerard_Seghers_-_The_Patient_Job_-_WGA21132.jpg/760px-Gerard_Seghers_-_The_Patient_Job_-_WGA21132.jpg"}}, {"type": "text", "text": "Filename: \"File:Gerard Seghers - The Patient Job - WGA21132.jpg\". Provide a one-line description, optionally using filename details."}]}], "temperature": 1, "max_tokens": 256, "top_p": 1, "frequency_penalty": 0, "presence_penalty": 0}}
{"custom_id": "request-9", "method": "POST", "url": "/v1/chat/completions", "body": {"model": "gpt-4o", "messages": [{"role": "system", "content": [{"type": "text", "text": "Write a concise one-line painting description for Wikimedia Commons."}]}, {"role": "user", "content": [{"type": "image_url", "image_url": {"url": "https://upload.wikimedia.org/wikipedia/commons/thumb/6/61/Frans_Snyders_-_Fruit_and_Vegetable_Stall_-_WGA21515.jpg/800px-Frans_Snyders_-_Fruit_and_Vegetable_Stall_-_WGA21515.jpg"}}, {"type": "text", "text": "Filename: \"File:Frans Snyders - Fruit and Vegetable Stall - WGA21515.jpg\". Provide a one-line description, optionally using filename details."}]}], "temperature": 1, "max_tokens": 256, "top_p": 1, "frequency_penalty": 0, "presence_penalty": 0}}
{"custom_id": "request-10", "method": "POST", "url": "/v1/chat/completions", "body": {"model": "gpt-4o", "messages": [{"role": "system", "content": [{"type": "text", "text": "Write a concise one-line painting description for Wikimedia Commons."}]}, {"role": "user", "content": [{"type": "image_url", "image_url": {"url": "https://upload.wikimedia.org/wikipedia/commons/thumb/0/0a/Frans_Snyders_-_Fruit_and_Vegetable_Stall_%28detail%29_-_WGA21516.jpg/462px-Frans_Snyders_-_Fruit_and_Vegetable_Stall_%28detail%29_-_WGA21516.jpg"}}, {"type": "text", "text": "Filename: \"File:Frans Snyders - Fruit and Vegetable Stall (detail) - WGA21516.jpg\". Provide a one-line description, optionally using filename details."}]}], "temperature": 1, "max_tokens": 256, "top_p": 1, "frequency_penalty": 0, "presence_penalty": 0}}
{"custom_id": "request-11", "method": "POST", "url": "/v1/chat/completions", "body": {"model": "gpt-4o", "messages": [{"role": "system", "content": [{"type": "text", "text": "Write a concise one-line painting description for Wikimedia Commons."}]}, {"role": "user", "content": [{"type": "image_url", "image_url": {"url": "https://upload.wikimedia.org/wikipedia/commons/thumb/e/ed/Sebastian_Stoskopff_-_Still_Life_with_Statuette_and_Shells_-_WGA21828.jpg/800px-Sebastian_Stoskopff_-_Still_Life_with_Statuette_and_Shells_-_WGA21828.jpg"}}, {"type": "text", "text": "Filename: \"File:Sebastian Stoskopff - Still Life with Statuette and Shells - WGA21828.jpg\". Provide a one-line description, optionally using filename details."}]}], "temperature": 1, "max_tokens": 256, "top_p": 1, "frequency_penalty": 0, "presence_penalty": 0}}
{"custom_id": "request-12", "method": "POST", "url": "/v1/chat/completions", "body": {"model": "gpt-4o", "messages": [{"role": "system", "content": [{"type": "text", "text": "Write a concise one-line painting description for Wikimedia Commons."}]}, {"role": "user", "content": [{"type": "image_url", "image_url": {"url": "https://upload.wikimedia.org/wikipedia/commons/thumb/b/b2/Nicolas_Tournier_-_Lute_Player_-_WGA23041.jpg/435px-Nicolas_Tournier_-_Lute_Player_-_WGA23041.jpg"}}, {"type": "text", "text": "Filename: \"File:Nicolas Tournier - Lute Player - WGA23041.jpg\". Provide a one-line description, optionally using filename details."}]}], "temperature": 1, "max_tokens": 256, "top_p": 1, "frequency_penalty": 0, "presence_penalty": 0}}
{"custom_id": "request-13", "method": "POST", "url": "/v1/chat/completions", "body": {"model": "gpt-4o", "messages": [{"role": "system", "content": [{"type": "text", "text": "Write a concise one-line painting description for Wikimedia Commons."}]}, {"role": "user", "content": [{"type": "image_url", "image_url": {"url": "https://upload.wikimedia.org/wikipedia/commons/thumb/c/c7/Nicolas_Tournier_-_Merry_Company_-_WGA23036.jpg/800px-Nicolas_Tournier_-_Merry_Company_-_WGA23036.jpg"}}, {"type": "text", "text": "Filename: \"File:Nicolas Tournier - Merry Company - WGA23036.jpg\". Provide a one-line description, optionally using filename details."}]}], "temperature": 1, "max_tokens": 256, "top_p": 1, "frequency_penalty": 0, "presence_penalty": 0}}
{"custom_id": "request-14", "method": "POST", "url": "/v1/chat/completions", "body": {"model": "gpt-4o", "messages": [{"role": "system", "content": [{"type": "text", "text": "Write a concise one-line painting description for Wikimedia Commons."}]}, {"role": "user", "content": [{"type": "image_url", "image_url": {"url": "https://upload.wikimedia.org/wikipedia/commons/thumb/2/26/Adriaen_van_Utrecht_-_Fishmonger%27s_Stall_-_WGA24196.jpg/800px-Adriaen_van_Utrecht_-_Fishmonger%27s_Stall_-_WGA24196.jpg"}}, {"type": "text", "text": "Filename: \"File:Adriaen van Utrecht - Fishmonger's Stall - WGA24196.jpg\". Provide a one-line description, optionally using filename details."}]}], "temperature": 1, "max_tokens": 256, "top_p": 1, "frequency_penalty": 0, "presence_penalty": 0}}
{"custom_id": "request-15", "method": "POST", "url": "/v1/chat/completions", "body": {"model": "gpt-4o", "messages": [{"role": "system", "content": [{"type": "text", "text": "Write a concise one-line painting description for Wikimedia Commons."}]}, {"role": "user", "content": [{"type": "image_url", "image_url": {"url": "https://upload.wikimedia.org/wikipedia/commons/thumb/f/f4/Lodewijk_de_Vadder_-_Landscape_before_the_Rain_-_WGA24204.jpg/800px-Lodewijk_de_Vadder_-_Landscape_before_the_Rain_-_WGA24204.jpg"}}, {"type": "text", "text": "Filename: \"File:Lodewijk de Vadder - Landscape before the Rain - WGA24204.jpg\". Provide a one-line description, optionally using filename details."}]}], "temperature": 1, "max_tokens": 256, "top_p": 1, "frequency_penalty": 0, "presence_penalty": 0}}
{"custom_id": "request-16", "method": "POST", "url": "/v1/chat/completions", "body": {"model": "gpt-4o", "messages": [{"role": "system", "content": [{"type": "text", "text": "Write a concise one-line painting description for Wikimedia Commons."}]}, {"role": "user", "content": [{"type": "image_url", "image_url": {"url": "https://upload.wikimedia.org/wikipedia/commons/thumb/e/e0/Paul_de_Vos_-_Still-Life_-_WGA25330.jpg/800px-Paul_de_Vos_-_Still-Life_-_WGA25330.jpg"}}, {"type": "text", "text": "Filename: \"File:Paul de Vos - Still-Life - WGA25330.jpg\". Provide a one-line description, optionally using filename details."}]}], "temperature": 1, "max_tokens": 256, "top_p": 1, "frequency_penalty": 0, "presence_penalty": 0}}
{"custom_id": "request-17", "method": "POST", "url": "/v1/chat/completions", "body": {"model": "gpt-4o", "messages": [{"role": "system", "content": [{"type": "text", "text": "Write a concise one-line painting description for Wikimedia Commons."}]}, {"role": "user", "content": [{"type": "image_url", "image_url": {"url": "https://upload.wikimedia.org/wikipedia/commons/thumb/a/ad/Jan_Baptist_Weenix_-_Ancient_Ruins_-_WGA25518.jpg/508px-Jan_Baptist_Weenix_-_Ancient_Ruins_-_WGA25518.jpg"}}, {"type": "text", "text": "Filename: \"File:Jan Baptist Weenix - Ancient Ruins - WGA25518.jpg\". Provide a one-line description, optionally using filename details."}]}], "temperature": 1, "max_tokens": 256, "top_p": 1, "frequency_penalty": 0, "presence_penalty": 0}}
{"custom_id": "request-18", "method": "POST", "url": "/v1/chat/completions", "body": {"model": "gpt-4o", "messages": [{"role": "system", "content": [{"type": "text", "text": "Write a concise one-line painting description for Wikimedia Commons."}]}, {"role": "user", "content": [{"type": "image_url", "image_url": {"url": "https://upload.wikimedia.org/wikipedia/commons/thumb/5/5f/Jan_Baptist_Weenix_-_Ancient_Ruins_%28detail%29_-_WGA25519.jpg/706px-Jan_Baptist_Weenix_-_Ancient_Ruins_%28detail%29_-_WGA25519.jpg"}}, {"type": "text", "text": "Filename: \"File:Jan Baptist Weenix - Ancient Ruins (detail) - WGA25519.jpg\". Provide a one-line description, optionally using filename details."}]}], "temperature": 1, "max_tokens": 256, "top_p": 1, "frequency_penalty": 0, "presence_penalty": 0}}
{"custom_id": "request-19", "method": "POST", "url": "/v1/chat/completions", "body": {"model": "gpt-4o", "messages": [{"role": "system", "content": [{"type": "text", "text": "Write a concise one-line painting description for Wikimedia Commons."}]}, {"role": "user", "content": [{"type": "image_url", "image_url": {"url": "https://upload.wikimedia.org/wikipedia/commons/thumb/b/ba/Artus_Wolffort_-_St_Andrew_-_WGA25857.jpg/467px-Artus_Wolffort_-_St_Andrew_-_WGA25857.jpg"}}, {"type": "text", "text": "Filename: \"File:Artus Wolffort - St Andrew - WGA25857.jpg\". Provide a one-line description, optionally using filename details."}]}], "temperature": 1, "max_tokens": 256, "top_p": 1, "frequency_penalty": 0, "presence_penalty": 0}}
{"custom_id": "request-20", "method": "POST", "url": "/v1/chat/completions", "body": {"model": "gpt-4o", "messages": [{"role": "system", "content": [{"type": "text", "text": "Write a concise one-line painting description for Wikimedia Commons."}]}, {"role": "user", "content": [{"type": "image_url", "image_url": {"url": "https://upload.wikimedia.org/wikipedia/commons/thumb/2/27/Jan_Janssens_-_The_Annunciation_-_WGA11940.jpg/513px-Jan_Janssens_-_The_Annunciation_-_WGA11940.jpg"}}, {"type": "text", "text": "Filename: \"File:Jan Janssens - The Annunciation - WGA11940.jpg\". Provide a one-line description, optionally using filename details."}]}], "temperature": 1, "max_tokens": 256, "top_p": 1, "frequency_penalty": 0, "presence_penalty": 0}}
{"custom_id": "request-21", "method": "POST", "url": "/v1/chat/completions", "body": {"model": "gpt-4o", "messages": [{"role": "system", "content": [{"type": "text", "text": "Write a concise one-line painting description for Wikimedia Commons."}]}, {"role": "user", "content": [{"type": "image_url", "image_url": {"url": "https://upload.wikimedia.org/wikipedia/commons/thumb/8/89/Joos_de_Momper_%28II%29_-_Landscape_-_WGA16127.jpg/800px-Joos_de_Momper_%28II%29_-_Landscape_-_WGA16127.jpg"}}, {"type": "text", "text": "Filename: \"File:Joos de Momper (II) - Landscape - WGA16127.jpg\". Provide a one-line description, optionally using filename details."}]}], "temperature": 1, "max_tokens": 256, "top_p": 1, "frequency_penalty": 0, "presence_penalty": 0}}
{"custom_id": "request-22", "method": "POST", "url": "/v1/chat/completions", "body": {"model": "gpt-4o", "messages": [{"role": "system", "content": [{"type": "text", "text": "Write a concise one-line painting description for Wikimedia Commons."}]}, {"role": "user", "content": [{"type": "image_url", "image_url": {"url": "https://upload.wikimedia.org/wikipedia/commons/thumb/5/5d/Joos_de_Momper_%28II%29_-_Flemish_Market_and_Washing_Place_-_WGA16128.jpg/694px-Joos_de_Momper_%28II%29_-_Flemish_Market_and_Washing_Place_-_WGA16128.jpg"}}, {"type": "text", "text": "Filename: \"File:Joos de Momper (II) - Flemish Market and Washing Place - WGA16128.jpg\". Provide a one-line description, optionally using filename details."}]}], "temperature": 1, "max_tokens": 256, "top_p": 1, "frequency_penalty": 0, "presence_penalty": 0}}
{"custom_id": "request-23", "method": "POST", "url": "/v1/chat/completions", "body": {"model": "gpt-4o", "messages": [{"role": "system", "content": [{"type": "text", "text": "Write a concise one-line painting description for Wikimedia Commons."}]}, {"role": "user", "content": [{"type": "image_url", "image_url": {"url": "https://upload.wikimedia.org/wikipedia/commons/thumb/f/f1/Joos_de_Momper_%28II%29_-_Village_at_Full_Moon_-_WGA16138.jpg/800px-Joos_de_Momper_%28II%29_-_Village_at_Full_Moon_-_WGA16138.jpg"}}, {"type": "text", "text": "Filename: \"File:Joos de Momper (II) - Village at Full Moon - WGA16138.jpg\". Provide a one-line description, optionally using filename details."}]}], "temperature": 1, "max_tokens": 256, "top_p": 1, "frequency_penalty": 0, "presence_penalty": 0}}
{"custom_id": "request-24", "method": "POST", "url": "/v1/chat/completions", "body": {"model": "gpt-4o", "messages": [{"role": "system", "content": [{"type": "text", "text": "Write a concise one-line painting description for Wikimedia Commons."}]}, {"role": "user", "content": [{"type": "image_url", "image_url": {"url": "https://upload.wikimedia.org/wikipedia/commons/thumb/c/c7/Joos_de_Momper_%28II%29_-_Village_at_Full_Moon_%28detail%29_-_WGA16139.jpg/423px-Joos_de_Momper_%28II%29_-_Village_at_Full_Moon_%28detail%29_-_WGA16139.jpg"}}, {"type": "text", "text": "Filename: \"File:Joos de Momper (II) - Village at Full Moon (detail) - WGA16139.jpg\". Provide a one-line description, optionally using filename details."}]}], "temperature": 1, "max_tokens": 256, "top_p": 1, "frequency_penalty": 0, "presence_penalty": 0}}
{"custom_id": "request-25", "method": "POST", "url": "/v1/chat/completions", "body": {"model": "gpt-4o", "messages": [{"role": "system", "content": [{"type": "text", "text": "Write a concise one-line painting description for Wikimedia Commons."}]}, {"role": "user", "content": [{"type": "image_url", "image_url": {"url": "https://upload.wikimedia.org/wikipedia/commons/thumb/2/26/Peter_Paul_Rubens_-_Small_Last_Judgement_-_WGA20226.jpg/389px-Peter_Paul_Rubens_-_Small_Last_Judgement_-_WGA20226.jpg"}}, {"type": "text", "text": "Filename: \"File:Peter Paul Rubens - Small Last Judgement - WGA20226.jpg\". Provide a one-line description, optionally using filename details."}]}], "temperature": 1, "max_tokens": 256, "top_p": 1, "frequency_penalty": 0, "presence_penalty": 0}}
{"custom_id": "request-26", "method": "POST", "url": "/v1/chat/completions", "body": {"model": "gpt-4o", "messages": [{"role": "system", "content": [{"type": "text", "text": "Write a concise one-line painting description for Wikimedia Commons."}]}, {"role": "user", "content": [{"type": "image_url", "image_url": {"url": "https://upload.wikimedia.org/wikipedia/commons/thumb/f/fc/Peter_Paul_Rubens_-_The_Flagellation_of_Christ_-_WGA20432.jpg/522px-Peter_Paul_Rubens_-_The_Flagellation_of_Christ_-_WGA20432.jpg"}}, {"type": "text", "text": "Filename: \"File:Peter Paul Rubens - The Flagellation of Christ - WGA20432.jpg\". Provide a one-line description, optionally using filename details."}]}], "temperature": 1, "max_tokens": 256, "top_p": 1, "frequency_penalty": 0, "presence_penalty": 0}}
{"custom_id": "request-27", "method": "POST", "url": "/v1/chat/completions", "body": {"model": "gpt-4o", "messages": [{"role": "system", "content": [{"type": "text", "text": "Write a concise one-line painting description for Wikimedia Commons."}]}, {"role": "user", "content": [{"type": "image_url", "image_url": {"url": "https://upload.wikimedia.org/wikipedia/commons/thumb/6/61/17th-century_unknown_painters_-_The_Chef_-_WGA24061.jpg/701px-17th-century_unknown_painters_-_The_Chef_-_WGA24061.jpg"}}, {"type": "text", "text": "Filename: \"File:17th-century unknown painters - The Chef - WGA24061.jpg\". Provide a one-line description, optionally using filename details."}]}], "temperature": 1, "max_tokens": 256, "top_p": 1, "frequency_penalty": 0, "presence_penalty": 0}}
{"custom_id": "request-28", "method": "POST", "url": "/v1/chat/completions", "body": {"model": "gpt-4o", "messages": [{"role": "system", "content": [{"type": "text", "text": "Write a concise one-line painting description for Wikimedia Commons."}]}, {"role": "user", "content": [{"type": "image_url", "image_url": {"url": "https://upload.wikimedia.org/wikipedia/commons/thumb/5/5b/Anthony_van_Dyck_-_Studies_of_a_Man%27s_Head_-_WGA07445.jpg/775px-Anthony_van_Dyck_-_Studies_of_a_Man%27s_Head_-_WGA07445.jpg"}}, {"type": "text", "text": "Filename: \"File:Anthony van Dyck - Studies of a Man's Head - WGA07445.jpg\". Provide a one-line description, optionally using filename details."}]}], "temperature": 1, "max_tokens": 256, "top_p": 1, "frequency_penalty": 0, "presence_penalty": 0}}
{"custom_id": "request-29", "method": "POST", "url": "/v1/chat/completions", "body": {"model": "gpt-4o", "messages": [{"role": "system", "content": [{"type": "text", "text": "Write a concise one-line painting description for Wikimedia Commons."}]}, {"role": "user", "content": [{"type": "image_url", "image_url": {"url": "https://upload.wikimedia.org/wikipedia/commons/thumb/0/06/Anthony_van_Dyck_-_Christ_on_the_Cross_-_WGA07431.jpg/417px-Anthony_van_Dyck_-_Christ_on_the_Cross_-_WGA07431.jpg"}}, {"type": "text", "text": "Filename: \"File:Anthony van Dyck - Christ on the Cross - WGA07431.jpg\". Provide a one-line description, optionally using filename details."}]}], "temperature": 1, "max_tokens": 256, "top_p": 1, "frequency_penalty": 0, "presence_penalty": 0}}
{"custom_id": "request-30", "method": "POST", "url": "/v1/chat/completions", "body": {"model": "gpt-4o", "messages": [{"role": "system", "content": [{"type": "text", "text": "Write a concise one-line painting description for Wikimedia Commons."}]}, {"role": "user", "content": [{"type": "image_url", "image_url": {"url": "https://upload.wikimedia.org/wikipedia/commons/thumb/d/d8/Giovanni_Baglione_-_The_Virgin_and_the_Child_with_Angels_-_WGA01161.jpg/458px-Giovanni_Baglione_-_The_Virgin_and_the_Child_with_Angels_-_WGA01161.jpg"}}, {"type": "text", "text": "Filename: \"File:Giovanni Baglione - The Virgin and the Child with Angels - WGA01161.jpg\". Provide a one-line description, optionally using filename details."}]}], "temperature": 1, "max_tokens": 256, "top_p": 1, "frequency_penalty": 0, "presence_penalty": 0}}
{"custom_id": "request-31", "method": "POST", "url": "/v1/chat/completions", "body": {"model": "gpt-4o", "messages": [{"role": "system", "content": [{"type": "text", "text": "Write a concise one-line painting description for Wikimedia Commons."}]}, {"role": "user", "content": [{"type": "image_url", "image_url": {"url": "https://upload.wikimedia.org/wikipedia/commons/thumb/1/1e/Hendrick_van_Balen_-_Diana_Resting_after_the_Hunt_-_WGA01227.jpg/800px-Hendrick_van_Balen_-_Diana_Resting_after_the_Hunt_-_WGA01227.jpg"}}, {"type": "text", "text": "Filename: \"File:Hendrick van Balen - Diana Resting after the Hunt - WGA01227.jpg\". Provide a one-line description, optionally using filename details."}]}], "temperature": 1, "max_tokens": 256, "top_p": 1, "frequency_penalty": 0, "presence_penalty": 0}}
{"custom_id": "request-32", "method": "POST", "url": "/v1/chat/completions", "body": {"model": "gpt-4o", "messages": [{"role": "system", "content": [{"type": "text", "text": "Write a concise one-line painting description for Wikimedia Commons."}]}, {"role": "user", "content": [{"type": "image_url", "image_url": {"url": "https://upload.wikimedia.org/wikipedia/commons/thumb/3/3e/Osias_Beert_%28I%29_-_Bouquet_in_a_Niche_-_WGA01566.jpg/412px-Osias_Beert_%28I%29_-_Bouquet_in_a_Niche_-_WGA01566.jpg"}}, {"type": "text", "text": "Filename: \"File:Osias Beert (I) - Bouquet in a Niche - WGA01566.jpg\". Provide a one-line description, optionally using filename details."}]}], "temperature": 1, "max_tokens": 256, "top_p": 1, "frequency_penalty": 0, "presence_penalty": 0}}
{"custom_id": "request-33", "method": "POST", "url": "/v1/chat/completions", "body": {"model": "gpt-4o", "messages": [{"role": "system", "content": [{"type": "text", "text": "Write a concise one-line painting description for Wikimedia Commons."}]}, {"role": "user", "content": [{"type": "image_url", "image_url": {"url": "https://upload.wikimedia.org/wikipedia/commons/thumb/9/93/Ambrosius_Bosschaert_%28I%29_-_Still-Life_of_Flowers_-_WGA02657.jpg/449px-Ambrosius_Bosschaert_%28I%29_-_Still-Life_of_Flowers_-_WGA02657.jpg"}}, {"type": "text", "text": "Filename: \"File:Ambrosius Bosschaert (I) - Still-Life of Flowers - WGA02657.jpg\". Provide a one-line description, optionally using filename details."}]}], "temperature": 1, "max_tokens": 256, "top_p": 1, "frequency_penalty": 0, "presence_penalty": 0}}
