{"custom_id": "request-133", "method": "POST", "url": "/v1/chat/completions", "body": {"model": "gpt-4o", "messages": [{"role": "system", "content": [{"type": "text", "text": "Write a concise one-line painting description for Wikimedia Commons."}]}, {"role": "user", "content": [{"type": "image_url", "image_url": {"url": "https://upload.wikimedia.org/wikipedia/commons/thumb/3/3c/Alejandro_de_Loarte_Magdalena_penitente.jpg/347px-Alejandro_de_Loarte_Magdalena_penitente.jpg"}}, {"type": "text", "text": "Filename: \"File:Alejandro de Loarte Magdalena penitente.jpg\". Provide a one-line description, optionally using filename details."}]}], "temperature": 1, "max_tokens": 256, "top_p": 1, "frequency_penalty": 0, "presence_penalty": 0}}
{"custom_id": "request-134", "method": "POST", "url": "/v1/chat/completions", "body": {"model": "gpt-4o", "messages": [{"role": "system", "content": [{"type": "text", "text": "Write a concise one-line painting description for Wikimedia Commons."}]}, {"role": "user", "content": [{"type": "image_url", "image_url": {"url": "https://upload.wikimedia.org/wikipedia/commons/thumb/b/b4/Ponce%2C_Antonio_-_Still-Life_in_the_Kitchen_-_17th_c.jpg/800px-Ponce%2C_Antonio_-_Still-Life_in_the_Kitchen_-_17th_c.jpg"}}, {"type": "text", "text": "Filename: \"File:Ponce, Antonio - Still-Life in the Kitchen - 17th c.jpg\". Provide a one-line description, optionally using filename details."}]}], "temperature": 1, "max_tokens": 256, "top_p": 1, "frequency_penalty": 0, "presence_penalty": 0}}
{"custom_id": "request-135", "method": "POST", "url": "/v1/chat/completions", "body": {"model": "gpt-4o", "messages": [{"role": "system", "content": [{"type": "text", "text": "Write a concise one-line painting description for Wikimedia Commons."}]}, {"role": "user", "content": [{"type": "image_url", "image_url": {"url": "https://upload.wikimedia.org/wikipedia/commons/thumb/9/9e/Juan_de_Espinosa%2C_Still_Life_Of_Fruits_And_A_Plate_Of_Olives_2_Web_Gallery_2.jpg/800px-Juan_de_Espinosa%2C_Still_Life_Of_Fruits_And_A_Plate_Of_Olives_2_Web_Gallery_2.jpg"}}, {"type": "text", "text": "Filename: \"File:Juan de Espinosa, Still Life Of Fruits And A Plate Of Olives 2 Web Gallery 2.jpg\". Provide a one-line description, optionally using filename details."}]}], "temperature": 1, "max_tokens": 256, "top_p": 1, "frequency_penalty": 0, "presence_penalty": 0}}
{"custom_id": "request-136", "method": "POST", "url": "/v1/chat/completions", "body": {"model": "gpt-4o", "messages": [{"role": "system", "content": [{"type": "text", "text": "Write a concise one-line painting description for Wikimedia Commons."}]}, {"role": "user", "content": [{"type": "image_url", "image_url": {"url": "https://upload.wikimedia.org/wikipedia/commons/thumb/9/92/Juan_de_Espinosa%2C_Still_Life_Of_Fruit_-_priv.jpg/478px-Juan_de_Espinosa%2C_Still_Life_Of_Fruit_-_priv.jpg"}}, {"type": "text", "text": "Filename: \"File:Juan de Espinosa, Still Life Of Fruit - priv.jpg\". Provide a one-line description, optionally using filename details."}]}], "temperature": 1, "max_tokens": 256, "top_p": 1, "frequency_penalty": 0, "presence_penalty": 0}}
{"custom_id": "request-137", "method": "POST", "url": "/v1/chat/completions", "body": {"model": "gpt-4o", "messages": [{"role": "system", "content": [{"type": "text", "text": "Write a concise one-line painting description for Wikimedia Commons."}]}, {"role": "user", "content": [{"type": "image_url", "image_url": {"url": "https://upload.wikimedia.org/wikipedia/commons/thumb/b/b0/George_Flegel_Dessert_Still-Life.jpg/782px-George_Flegel_Dessert_Still-Life.jpg"}}, {"type": "text", "text": "Filename: \"File:George Flegel Dessert Still-Life.jpg\". Provide a one-line description, optionally using filename details."}]}], "temperature": 1, "max_tokens": 256, "top_p": 1, "frequency_penalty": 0, "presence_penalty": 0}}
{"custom_id": "request-138", "method": "POST", "url": "/v1/chat/completions", "body": {"model": "gpt-4o", "messages": [{"role": "system", "content": [{"type": "text", "text": "Write a concise one-line painting description for Wikimedia Commons."}]}, {"role": "user", "content": [{"type": "image_url", "image_url": {"url": "https://upload.wikimedia.org/wikipedia/commons/thumb/8/81/George_Flegel_Still-Life_with_Bread_and_Confectionary.jpg/467px-George_Flegel_Still-Life_with_Bread_and_Confectionary.jpg"}}, {"type": "text", "text": "Filename: \"File:George Flegel Still-Life with Bread and Confectionary.jpg\". Provide a one-line description, optionally using filename details."}]}], "temperature": 1, "max_tokens": 256, "top_p": 1, "frequency_penalty": 0, "presence_penalty": 0}}
{"custom_id": "request-139", "method": "POST", "url": "/v1/chat/completions", "body": {"model": "gpt-4o", "messages": [{"role": "system", "content": [{"type": "text", "text": "Write a concise one-line painting description for Wikimedia Commons."}]}, {"role": "user", "content": [{"type": "image_url", "image_url": {"url": "https://upload.wikimedia.org/wikipedia/commons/thumb/1/17/Frans_II_Francken_Sebastiaan_Leerse_in_his_Gallery.jpg/800px-Frans_II_Francken_Sebastiaan_Leerse_in_his_Gallery.jpg"}}, {"type": "text", "text": "Filename: \"File:Frans II Francken Sebastiaan Leerse in his Gallery.jpg\". Provide a one-line description, optionally using filename details."}]}], "temperature": 1, "max_tokens": 256, "top_p": 1, "frequency_penalty": 0, "presence_penalty": 0}}
{"custom_id": "request-140", "method": "POST", "url": "/v1/chat/completions", "body": {"model": "gpt-4o", "messages": [{"role": "system", "content": [{"type": "text", "text": "Write a concise one-line painting description for Wikimedia Commons."}]}, {"role": "user", "content": [{"type": "image_url", "image_url": {"url": "https://upload.wikimedia.org/wikipedia/commons/thumb/1/19/Frans_II_Francken_Triumph_of_Amphitrite.jpg/800px-Frans_II_Francken_Triumph_of_Amphitrite.jpg"}}, {"type": "text", "text": "Filename: \"File:Frans II Francken Triumph of Amphitrite.jpg\". Provide a one-line description, optionally using filename details."}]}], "temperature": 1, "max_tokens": 256, "top_p": 1, "frequency_penalty": 0, "presence_penalty": 0}}
{"custom_id": "request-141", "method": "POST", "url": "/v1/chat/completions", "body": {"model": "gpt-4o", "messages": [{"role": "system", "content": [{"type": "text", "text": "Write a concise one-line painting description for Wikimedia Commons."}]}, {"role": "user", "content": [{"type": "image_url", "image_url": {"url": "https://upload.wikimedia.org/wikipedia/commons/thumb/0/02/Frans_II_Francken_Worship_of_the_Golden_Calf.jpg/800px-Frans_II_Francken_Worship_of_the_Golden_Calf.jpg"}}, {"type": "text", "text": "Filename: \"File:Frans II Francken Worship of the Golden Calf.jpg\". Provide a one-line description, optionally using filename details."}]}], "temperature": 1, "max_tokens": 256, "top_p": 1, "frequency_penalty": 0, "presence_penalty": 0}}
{"custom_id": "request-142", "method": "POST", "url": "/v1/chat/completions", "body": {"model": "gpt-4o", "messages": [{"role": "system", "content": [{"type": "text", "text": "Write a concise one-line painting description for Wikimedia Commons."}]}, {"role": "user", "content": [{"type": "image_url", "image_url": {"url": "https://upload.wikimedia.org/wikipedia/commons/thumb/7/7e/Balthasar_van_der_Ast_Still-Life_with_Dish_of_Fruit.jpg/800px-Balthasar_van_der_Ast_Still-Life_with_Dish_of_Fruit.jpg"}}, {"type": "text", "text": "Filename: \"File:Balthasar van der Ast Still-Life with Dish of Fruit.jpg\". Provide a one-line description, optionally using filename details."}]}], "temperature": 1, "max_tokens": 256, "top_p": 1, "frequency_penalty": 0, "presence_penalty": 0}}
{"custom_id": "request-143", "method": "POST", "url": "/v1/chat/completions", "body": {"model": "gpt-4o", "messages": [{"role": "system", "content": [{"type": "text", "text": "Write a concise one-line painting description for Wikimedia Commons."}]}, {"role": "user", "content": [{"type": "image_url", "image_url": {"url": "https://upload.wikimedia.org/wikipedia/commons/thumb/2/2e/Padovanino_Venus_durmiente_con_angelitos_col_par.jpg/465px-Padovanino_Venus_durmiente_con_angelitos_col_par.jpg"}}, {"type": "text", "text": "Filename: \"File:Padovanino Venus durmiente con angelitos col par.jpg\". Provide a one-line description, optionally using filename details."}]}], "temperature": 1, "max_tokens": 256, "top_p": 1, "frequency_penalty": 0, "presence_penalty": 0}}
{"custom_id": "request-144", "method": "POST", "url": "/v1/chat/completions", "body": {"model": "gpt-4o", "messages": [{"role": "system", "content": [{"type": "text", "text": "Write a concise one-line painting description for Wikimedia Commons."}]}, {"role": "user", "content": [{"type": "image_url", "image_url": {"url": "https://upload.wikimedia.org/wikipedia/commons/thumb/b/b4/Padovanino_Orfeo_Lienzo._165_x_108_cm._Museo_del_Prado._Madrid.jpg/388px-Padovanino_Orfeo_Lienzo._165_x_108_cm._Museo_del_Prado._Madrid.jpg"}}, {"type": "text", "text": "Filename: \"File:Padovanino Orfeo Lienzo. 165 x 108 cm. Museo del Prado. Madrid.jpg\". Provide a one-line description, optionally using filename details."}]}], "temperature": 1, "max_tokens": 256, "top_p": 1, "frequency_penalty": 0, "presence_penalty": 0}}
{"custom_id": "request-145", "method": "POST", "url": "/v1/chat/completions", "body": {"model": "gpt-4o", "messages": [{"role": "system", "content": [{"type": "text", "text": "Write a concise one-line painting description for Wikimedia Commons."}]}, {"role": "user", "content": [{"type": "image_url", "image_url": {"url": "https://upload.wikimedia.org/wikipedia/commons/thumb/1/11/Miel%2C_Jan_-_Hunters_at_Rest_-_17th_c.jpg/800px-Miel%2C_Jan_-_Hunters_at_Rest_-_17th_c.jpg"}}, {"type": "text", "text": "Filename: \"File:Miel, Jan - Hunters at Rest - 17th c.jpg\". Provide a one-line description, optionally using filename details."}]}], "temperature": 1, "max_tokens": 256, "top_p": 1, "frequency_penalty": 0, "presence_penalty": 0}}
{"custom_id": "request-146", "method": "POST", "url": "/v1/chat/completions", "body": {"model": "gpt-4o", "messages": [{"role": "system", "content": [{"type": "text", "text": "Write a concise one-line painting description for Wikimedia Commons."}]}, {"role": "user", "content": [{"type": "image_url", "image_url": {"url": "https://upload.wikimedia.org/wikipedia/commons/thumb/f/f6/Distribution_of_Loaves_to_the_Poor_David_Vinckbooms.jpg/800px-Distribution_of_Loaves_to_the_Poor_David_Vinckbooms.jpg"}}, {"type": "text", "text": "Filename: \"File:Distribution of Loaves to the Poor David Vinckbooms.jpg\". Provide a one-line description, optionally using filename details."}]}], "temperature": 1, "max_tokens": 256, "top_p": 1, "frequency_penalty": 0, "presence_penalty": 0}}
{"custom_id": "request-147", "method": "POST", "url": "/v1/chat/completions", "body": {"model": "gpt-4o", "messages": [{"role": "system", "content": [{"type": "text", "text": "Write a concise one-line painting description for Wikimedia Commons."}]}, {"role": "user", "content": [{"type": "image_url", "image_url": {"url": "https://upload.wikimedia.org/wikipedia/commons/thumb/4/44/Blanchard%2C_Jacques_-_Saint_Cecilia_-_17th_c.jpg/800px-Blanchard%2C_Jacques_-_Saint_Cecilia_-_17th_c.jpg"}}, {"type": "text", "text": "Filename: \"File:Blanchard, Jacques - Saint Cecilia - 17th c.jpg\". Provide a one-line description, optionally using filename details."}]}], "temperature": 1, "max_tokens": 256, "top_p": 1, "frequency_penalty": 0, "presence_penalty": 0}}
{"custom_id": "request-148", "method": "POST", "url": "/v1/chat/completions", "body": {"model": "gpt-4o", "messages": [{"role": "system", "content": [{"type": "text", "text": "Write a concise one-line painting description for Wikimedia Commons."}]}, {"role": "user", "content": [{"type": "image_url", "image_url": {"url": "https://upload.wikimedia.org/wikipedia/commons/thumb/7/77/Es%2C_Jacob_van_-_Still-Life_of_Grapes%2C_Plums_and_Apples_-_17th_c.jpg/800px-Es%2C_Jacob_van_-_Still-Life_of_Grapes%2C_Plums_and_Apples_-_17th_c.jpg"}}, {"type": "text", "text": "Filename: \"File:Es, Jacob van - Still-Life of Grapes, Plums and Apples - 17th c.jpg\". Provide a one-line description, optionally using filename details."}]}], "temperature": 1, "max_tokens": 256, "top_p": 1, "frequency_penalty": 0, "presence_penalty": 0}}
{"custom_id": "request-149", "method": "POST", "url": "/v1/chat/completions", "body": {"model": "gpt-4o", "messages": [{"role": "system", "content": [{"type": "text", "text": "Write a concise one-line painting description for Wikimedia Commons."}]}, {"role": "user", "content": [{"type": "image_url", "image_url": {"url": "https://upload.wikimedia.org/wikipedia/commons/thumb/0/0b/Poelenburgh%2C_Cornelis_van_-_Landscape_with_Diana_and_Callisto_-17th_c.jpg/800px-Poelenburgh%2C_Cornelis_van_-_Landscape_with_Diana_and_Callisto_-17th_c.jpg"}}, {"type": "text", "text": "Filename: \"File:Poelenburgh, Cornelis van - Landscape with Diana and Callisto -17th c.jpg\". Provide a one-line description, optionally using filename details."}]}], "temperature": 1, "max_tokens": 256, "top_p": 1, "frequency_penalty": 0, "presence_penalty": 0}}
{"custom_id": "request-150", "method": "POST", "url": "/v1/chat/completions", "body": {"model": "gpt-4o", "messages": [{"role": "system", "content": [{"type": "text", "text": "Write a concise one-line painting description for Wikimedia Commons."}]}, {"role": "user", "content": [{"type": "image_url", "image_url": {"url": "https://upload.wikimedia.org/wikipedia/commons/thumb/c/c4/Boucle%2C_Pierre_Van_-_Still-Life_-_17th_c.jpg/762px-Boucle%2C_Pierre_Van_-_Still-Life_-_17th_c.jpg"}}, {"type": "text", "text": "Filename: \"File:Boucle, Pierre Van - Still-Life - 17th c.jpg\". Provide a one-line description, optionally using filename details."}]}], "temperature": 1, "max_tokens": 256, "top_p": 1, "frequency_penalty": 0, "presence_penalty": 0}}
{"custom_id": "request-151", "method": "POST", "url": "/v1/chat/completions", "body": {"model": "gpt-4o", "messages": [{"role": "system", "content": [{"type": "text", "text": "Write a concise one-line painting description for Wikimedia Commons."}]}, {"role": "user", "content": [{"type": "image_url", "image_url": {"url": "https://upload.wikimedia.org/wikipedia/commons/thumb/4/4d/CF_Nuvolone_La_familia_del_artista_Brera.jpg/800px-CF_Nuvolone_La_familia_del_artista_Brera.jpg"}}, {"type": "text", "text": "Filename: \"File:CF Nuvolone La familia del artista Brera.jpg\". Provide a one-line description, optionally using filename details."}]}], "temperature": 1, "max_tokens": 256, "top_p": 1, "frequency_penalty": 0, "presence_penalty": 0}}
{"custom_id": "request-152", "method": "POST", "url": "/v1/chat/completions", "body": {"model": "gpt-4o", "messages": [{"role": "system", "content": [{"type": "text", "text": "Write a concise one-line painting description for Wikimedia Commons."}]}, {"role": "user", "content": [{"type": "image_url", "image_url": {"url": "https://upload.wikimedia.org/wikipedia/commons/thumb/b/b5/Willem_van_Nieulandt_-_forumrome_-_WGA.jpg/800px-Willem_van_Nieulandt_-_forumrome_-_WGA.jpg"}}, {"type": "text", "text": "Filename: \"File:Willem van Nieulandt - forumrome - WGA.jpg\". Provide a one-line description, optionally using filename details."}]}], "temperature": 1, "max_tokens": 256, "top_p": 1, "frequency_penalty": 0, "presence_penalty": 0}}
{"custom_id": "request-153", "method": "POST", "url": "/v1/chat/completions", "body": {"model": "gpt-4o", "messages": [{"role": "system", "content": [{"type": "text", "text": "Write a concise one-line painting description for Wikimedia Commons."}]}, {"role": "user", "content": [{"type": "image_url", "image_url": {"url": "https://upload.wikimedia.org/wikipedia/commons/thumb/8/8e/Juan_ribalta-san_juan.jpg/357px-Juan_ribalta-san_juan.jpg"}}, {"type": "text", "text": "Filename: \"File:Juan ribalta-san juan.jpg\". Provide a one-line description, optionally using filename details."}]}], "temperature": 1, "max_tokens": 256, "top_p": 1, "frequency_penalty": 0, "presence_penalty": 0}}
{"custom_id": "request-154", "method": "POST", "url": "/v1/chat/completions", "body": {"model": "gpt-4o", "messages": [{"role": "system", "content": [{"type": "text", "text": "Write a concise one-line painting description for Wikimedia Commons."}]}, {"role": "user", "content": [{"type": "image_url", "image_url": {"url": "https://upload.wikimedia.org/wikipedia/commons/thumb/7/77/Pieter_Meulener_Cavalry_skirmish.jpg/800px-Pieter_Meulener_Cavalry_skirmish.jpg"}}, {"type": "text", "text": "Filename: \"File:Pieter Meulener Cavalry skirmish.jpg\". Provide a one-line description, optionally using filename details."}]}], "temperature": 1, "max_tokens": 256, "top_p": 1, "frequency_penalty": 0, "presence_penalty": 0}}
{"custom_id": "request-155", "method": "POST", "url": "/v1/chat/completions", "body": {"model": "gpt-4o", "messages": [{"role": "system", "content": [{"type": "text", "text": "Write a concise one-line painting description for Wikimedia Commons."}]}, {"role": "user", "content": [{"type": "image_url", "image_url": {"url": "https://upload.wikimedia.org/wikipedia/commons/3/3d/Cerrini%2C_Giovanni_Domenico_-_Apollo_e_la_Sibilla_Cumana.jpg"}}, {"type": "text", "text": "Filename: \"File:Cerrini, Giovanni Domenico - Apollo e la Sibilla Cumana.jpg\". Provide a one-line description, optionally using filename details."}]}], "temperature": 1, "max_tokens": 256, "top_p": 1, "frequency_penalty": 0, "presence_penalty": 0}}
{"custom_id": "request-156", "method": "POST", "url": "/v1/chat/completions", "body": {"model": "gpt-4o", "messages": [{"role": "system", "content": [{"type": "text", "text": "Write a concise one-line painting description for Wikimedia Commons."}]}, {"role": "user", "content": [{"type": "image_url", "image_url": {"url": "https://upload.wikimedia.org/wikipedia/commons/thumb/8/8e/Reni%2C_Guido_-_Angelo_dell%27Annunciazione.jpg/472px-Reni%2C_Guido_-_Angelo_dell%27Annunciazione.jpg"}}, {"type": "text", "text": "Filename: \"File:Reni, Guido - Angelo dell'Annunciazione.jpg\". Provide a one-line description, optionally using filename details."}]}], "temperature": 1, "max_tokens": 256, "top_p": 1, "frequency_penalty": 0, "presence_penalty": 0}}
{"custom_id": "request-157", "method": "POST", "url": "/v1/chat/completions", "body": {"model": "gpt-4o", "messages": [{"role": "system", "content": [{"type": "text", "text": "Write a concise one-line painting description for Wikimedia Commons."}]}, {"role": "user", "content": [{"type": "image_url", "image_url": {"url": "https://upload.wikimedia.org/wikipedia/commons/d/d0/Antoine_Sallaert_-_madonna_and_child_in_garland_of_flowers.jpg"}}, {"type": "text", "text": "Filename: \"File:Antoine Sallaert - madonna and child in garland of flowers.jpg\". Provide a one-line description, optionally using filename details."}]}], "temperature": 1, "max_tokens": 256, "top_p": 1, "frequency_penalty": 0, "presence_penalty": 0}}
{"custom_id": "request-158", "method": "POST", "url": "/v1/chat/completions", "body": {"model": "gpt-4o", "messages": [{"role": "system", "content": [{"type": "text", "text": "Write a concise one-line painting description for Wikimedia Commons."}]}, {"role": "user", "content": [{"type": "image_url", "image_url": {"url": "https://upload.wikimedia.org/wikipedia/commons/thumb/1/13/Stoskopff-Nature-morte1-LeHavre.jpg/676px-Stoskopff-Nature-morte1-LeHavre.jpg"}}, {"type": "text", "text": "Filename: \"File:Stoskopff-Nature-morte1-LeHavre.jpg\". Provide a one-line description, optionally using filename details."}]}], "temperature": 1, "max_tokens": 256, "top_p": 1, "frequency_penalty": 0, "presence_penalty": 0}}
{"custom_id": "request-159", "method": "POST", "url": "/v1/chat/completions", "body": {"model": "gpt-4o", "messages": [{"role": "system", "content": [{"type": "text", "text": "Write a concise one-line painting description for Wikimedia Commons."}]}, {"role": "user", "content": [{"type": "image_url", "image_url": {"url": "https://upload.wikimedia.org/wikipedia/commons/thumb/d/df/Ant%C3%B3nio_Vieira_-_Sagrada_Fam%C3%ADlia.jpg/436px-Ant%C3%B3nio_Vieira_-_Sagrada_Fam%C3%ADlia.jpg"}}, {"type": "text", "text": "Filename: \"File:Ant\u00f3nio Vieira - Sagrada Fam\u00edlia.jpg\". Provide a one-line description, optionally using filename details."}]}], "temperature": 1, "max_tokens": 256, "top_p": 1, "frequency_penalty": 0, "presence_penalty": 0}}
{"custom_id": "request-160", "method": "POST", "url": "/v1/chat/completions", "body": {"model": "gpt-4o", "messages": [{"role": "system", "content": [{"type": "text", "text": "Write a concise one-line painting description for Wikimedia Commons."}]}, {"role": "user", "content": [{"type": "image_url", "image_url": {"url": "https://upload.wikimedia.org/wikipedia/commons/thumb/e/e8/Metsu_Washerwoman.JPG/535px-Metsu_Washerwoman.JPG"}}, {"type": "text", "text": "Filename: \"File:Metsu Washerwoman.JPG\". Provide a one-line description, optionally using filename details."}]}], "temperature": 1, "max_tokens": 256, "top_p": 1, "frequency_penalty": 0, "presence_penalty": 0}}
{"custom_id": "request-161", "method": "POST", "url": "/v1/chat/completions", "body": {"model": "gpt-4o", "messages": [{"role": "system", "content": [{"type": "text", "text": "Write a concise one-line painting description for Wikimedia Commons."}]}, {"role": "user", "content": [{"type": "image_url", "image_url": {"url": "https://upload.wikimedia.org/wikipedia/commons/6/6b/Simon_de_Vos_Wedding_at_Cana.jpg"}}, {"type": "text", "text": "Filename: \"File:Simon de Vos Wedding at Cana.jpg\". Provide a one-line description, optionally using filename details."}]}], "temperature": 1, "max_tokens": 256, "top_p": 1, "frequency_penalty": 0, "presence_penalty": 0}}
{"custom_id": "request-162", "method": "POST", "url": "/v1/chat/completions", "body": {"model": "gpt-4o", "messages": [{"role": "system", "content": [{"type": "text", "text": "Write a concise one-line painting description for Wikimedia Commons."}]}, {"role": "user", "content": [{"type": "image_url", "image_url": {"url": "https://upload.wikimedia.org/wikipedia/commons/thumb/6/62/Festbankett_fl%C3%A4misch_17_Jh.jpg/800px-Festbankett_fl%C3%A4misch_17_Jh.jpg"}}, {"type": "text", "text": "Filename: \"File:Festbankett fl\u00e4misch 17 Jh.jpg\". Provide a one-line description, optionally using filename details."}]}], "temperature": 1, "max_tokens": 256, "top_p": 1, "frequency_penalty": 0, "presence_penalty": 0}}
{"custom_id": "request-163", "method": "POST", "url": "/v1/chat/completions", "body": {"model": "gpt-4o", "messages": [{"role": "system", "content": [{"type": "text", "text": "Write a concise one-line painting description for Wikimedia Commons."}]}, {"role": "user", "content": [{"type": "image_url", "image_url": {"url": "https://upload.wikimedia.org/wikipedia/commons/thumb/5/5c/Valentin_de_Boulogne%2C_Crowning_with_Thorns.jpg/440px-Valentin_de_Boulogne%2C_Crowning_with_Thorns.jpg"}}, {"type": "text", "text": "Filename: \"File:Valentin de Boulogne, Crowning with Thorns.jpg\". Provide a one-line description, optionally using filename details."}]}], "temperature": 1, "max_tokens": 256, "top_p": 1, "frequency_penalty": 0, "presence_penalty": 0}}
{"custom_id": "request-164", "method": "POST", "url": "/v1/chat/completions", "body": {"model": "gpt-4o", "messages": [{"role": "system", "content": [{"type": "text", "text": "Write a concise one-line painting description for Wikimedia Commons."}]}, {"role": "user", "content": [{"type": "image_url", "image_url": {"url": "https://upload.wikimedia.org/wikipedia/commons/thumb/1/17/AACHEN%2C_Hans_von_-_Joking_Couple_-_WGA.jpg/437px-AACHEN%2C_Hans_von_-_Joking_Couple_-_WGA.jpg"}}, {"type": "text", "text": "Filename: \"File:AACHEN, Hans von - Joking Couple - WGA.jpg\". Provide a one-line description, optionally using filename details."}]}], "temperature": 1, "max_tokens": 256, "top_p": 1, "frequency_penalty": 0, "presence_penalty": 0}}
{"custom_id": "request-165", "method": "POST", "url": "/v1/chat/completions", "body": {"model": "gpt-4o", "messages": [{"role": "system", "content": [{"type": "text", "text": "Write a concise one-line painting description for Wikimedia Commons."}]}, {"role": "user", "content": [{"type": "image_url", "image_url": {"url": "https://upload.wikimedia.org/wikipedia/commons/thumb/5/5f/Bourdon-Homme-rubans-Fabre.jpg/491px-Bourdon-Homme-rubans-Fabre.jpg"}}, {"type": "text", "text": "Filename: \"File:Bourdon-Homme-rubans-Fabre.jpg\". Provide a one-line description, optionally using filename details."}]}], "temperature": 1, "max_tokens": 256, "top_p": 1, "frequency_penalty": 0, "presence_penalty": 0}}
