{"custom_id": "request-100", "method": "POST", "url": "/v1/chat/completions", "body": {"model": "gpt-4o", "messages": [{"role": "system", "content": [{"type": "text", "text": "Write a concise one-line painting description for Wikimedia Commons."}]}, {"role": "user", "content": [{"type": "image_url", "image_url": {"url": "https://upload.wikimedia.org/wikipedia/commons/thumb/1/1d/Bernardo_Strozzi._Allegory_of_mathematics_%2817th_century%29.jpg/800px-Bernardo_Strozzi._Allegory_of_mathematics_%2817th_century%29.jpg"}}, {"type": "text", "text": "Filename: \"File:Bernardo Strozzi. Allegory of mathematics (17th century).jpg\". Provide a one-line description, optionally using filename details."}]}], "temperature": 1, "max_tokens": 256, "top_p": 1, "frequency_penalty": 0, "presence_penalty": 0}}
{"custom_id": "request-101", "method": "POST", "url": "/v1/chat/completions", "body": {"model": "gpt-4o", "messages": [{"role": "system", "content": [{"type": "text", "text": "Write a concise one-line painting description for Wikimedia Commons."}]}, {"role": "user", "content": [{"type": "image_url", "image_url": {"url": "https://upload.wikimedia.org/wikipedia/commons/thumb/f/f6/Daniele_Crespi_001.jpg/490px-Daniele_Crespi_001.jpg"}}, {"type": "text", "text": "Filename: \"File:Daniele Crespi 001.jpg\". Provide a one-line description, optionally using filename details."}]}], "temperature": 1, "max_tokens": 256, "top_p": 1, "frequency_penalty": 0, "presence_penalty": 0}}
{"custom_id": "request-102", "method": "POST", "url": "/v1/chat/completions", "body": {"model": "gpt-4o", "messages": [{"role": "system", "content": [{"type": "text", "text": "Write a concise one-line painting description for Wikimedia Commons."}]}, {"role": "user", "content": [{"type": "image_url", "image_url": {"url": "https://upload.wikimedia.org/wikipedia/commons/thumb/e/e7/Anthonis_van_Dyck_002.jpg/450px-Anthonis_van_Dyck_002.jpg"}}, {"type": "text", "text": "Filename: \"File:Anthonis van Dyck 002.jpg\". Provide a one-line description, optionally using filename details."}]}], "temperature": 1, "max_tokens": 256, "top_p": 1, "frequency_penalty": 0, "presence_penalty": 0}}
{"custom_id": "request-103", "method": "POST", "url": "/v1/chat/completions", "body": {"model": "gpt-4o", "messages": [{"role": "system", "content": [{"type": "text", "text": "Write a concise one-line painting description for Wikimedia Commons."}]}, {"role": "user", "content": [{"type": "image_url", "image_url": {"url": "https://upload.wikimedia.org/wikipedia/commons/thumb/7/7b/Anthonis_van_Dyck_009.jpg/455px-Anthonis_van_Dyck_009.jpg"}}, {"type": "text", "text": "Filename: \"File:Anthonis van Dyck 009.jpg\". Provide a one-line description, optionally using filename details."}]}], "temperature": 1, "max_tokens": 256, "top_p": 1, "frequency_penalty": 0, "presence_penalty": 0}}
{"custom_id": "request-104", "method": "POST", "url": "/v1/chat/completions", "body": {"model": "gpt-4o", "messages": [{"role": "system", "content": [{"type": "text", "text": "Write a concise one-line painting description for Wikimedia Commons."}]}, {"role": "user", "content": [{"type": "image_url", "image_url": {"url": "https://upload.wikimedia.org/wikipedia/commons/thumb/8/83/Anthonis_van_Dyck_006.jpg/420px-Anthonis_van_Dyck_006.jpg"}}, {"type": "text", "text": "Filename: \"File:Anthonis van Dyck 006.jpg\". Provide a one-line description, optionally using filename details."}]}], "temperature": 1, "max_tokens": 256, "top_p": 1, "frequency_penalty": 0, "presence_penalty": 0}}
{"custom_id": "request-105", "method": "POST", "url": "/v1/chat/completions", "body": {"model": "gpt-4o", "messages": [{"role": "system", "content": [{"type": "text", "text": "Write a concise one-line painting description for Wikimedia Commons."}]}, {"role": "user", "content": [{"type": "image_url", "image_url": {"url": "https://upload.wikimedia.org/wikipedia/commons/thumb/c/cc/Jakob_Jordaens_008.jpg/800px-Jakob_Jordaens_008.jpg"}}, {"type": "text", "text": "Filename: \"File:Jakob Jordaens 008.jpg\". Provide a one-line description, optionally using filename details."}]}], "temperature": 1, "max_tokens": 256, "top_p": 1, "frequency_penalty": 0, "presence_penalty": 0}}
{"custom_id": "request-106", "method": "POST", "url": "/v1/chat/completions", "body": {"model": "gpt-4o", "messages": [{"role": "system", "content": [{"type": "text", "text": "Write a concise one-line painting description for Wikimedia Commons."}]}, {"role": "user", "content": [{"type": "image_url", "image_url": {"url": "https://upload.wikimedia.org/wikipedia/commons/thumb/8/8b/Jan_Both_-_Landscape_with_Morra_Players.jpg/800px-Jan_Both_-_Landscape_with_Morra_Players.jpg"}}, {"type": "text", "text": "Filename: \"File:Jan Both - Landscape with Morra Players.jpg\". Provide a one-line description, optionally using filename details."}]}], "temperature": 1, "max_tokens": 256, "top_p": 1, "frequency_penalty": 0, "presence_penalty": 0}}
{"custom_id": "request-107", "method": "POST", "url": "/v1/chat/completions", "body": {"model": "gpt-4o", "messages": [{"role": "system", "content": [{"type": "text", "text": "Write a concise one-line painting description for Wikimedia Commons."}]}, {"role": "user", "content": [{"type": "image_url", "image_url": {"url": "https://upload.wikimedia.org/wikipedia/commons/thumb/6/68/Jaques_Linard_001.jpg/741px-Jaques_Linard_001.jpg"}}, {"type": "text", "text": "Filename: \"File:Jaques Linard 001.jpg\". Provide a one-line description, optionally using filename details."}]}], "temperature": 1, "max_tokens": 256, "top_p": 1, "frequency_penalty": 0, "presence_penalty": 0}}
{"custom_id": "request-108", "method": "POST", "url": "/v1/chat/completions", "body": {"model": "gpt-4o", "messages": [{"role": "system", "content": [{"type": "text", "text": "Write a concise one-line painting description for Wikimedia Commons."}]}, {"role": "user", "content": [{"type": "image_url", "image_url": {"url": "https://upload.wikimedia.org/wikipedia/commons/thumb/d/d0/Petrarca-Meister_001.jpg/800px-Petrarca-Meister_001.jpg"}}, {"type": "text", "text": "Filename: \"File:Petrarca-Meister 001.jpg\". Provide a one-line description, optionally using filename details."}]}], "temperature": 1, "max_tokens": 256, "top_p": 1, "frequency_penalty": 0, "presence_penalty": 0}}
{"custom_id": "request-109", "method": "POST", "url": "/v1/chat/completions", "body": {"model": "gpt-4o", "messages": [{"role": "system", "content": [{"type": "text", "text": "Write a concise one-line painting description for Wikimedia Commons."}]}, {"role": "user", "content": [{"type": "image_url", "image_url": {"url": "https://upload.wikimedia.org/wikipedia/commons/thumb/4/4a/Hans_Rottenhammer_002.jpg/509px-Hans_Rottenhammer_002.jpg"}}, {"type": "text", "text": "Filename: \"File:Hans Rottenhammer 002.jpg\". Provide a one-line description, optionally using filename details."}]}], "temperature": 1, "max_tokens": 256, "top_p": 1, "frequency_penalty": 0, "presence_penalty": 0}}
{"custom_id": "request-110", "method": "POST", "url": "/v1/chat/completions", "body": {"model": "gpt-4o", "messages": [{"role": "system", "content": [{"type": "text", "text": "Write a concise one-line painting description for Wikimedia Commons."}]}, {"role": "user", "content": [{"type": "image_url", "image_url": {"url": "https://upload.wikimedia.org/wikipedia/commons/thumb/d/df/Peter_Paul_Rubens_082.jpg/755px-Peter_Paul_Rubens_082.jpg"}}, {"type": "text", "text": "Filename: \"File:Peter Paul Rubens 082.jpg\". Provide a one-line description, optionally using filename details."}]}], "temperature": 1, "max_tokens": 256, "top_p": 1, "frequency_penalty": 0, "presence_penalty": 0}}
{"custom_id": "request-111", "method": "POST", "url": "/v1/chat/completions", "body": {"model": "gpt-4o", "messages": [{"role": "system", "content": [{"type": "text", "text": "Write a concise one-line painting description for Wikimedia Commons."}]}, {"role": "user", "content": [{"type": "image_url", "image_url": {"url": "https://upload.wikimedia.org/wikipedia/commons/thumb/9/9d/Peter_Paul_Rubens_103.jpg/495px-Peter_Paul_Rubens_103.jpg"}}, {"type": "text", "text": "Filename: \"File:Peter Paul Rubens 103.jpg\". Provide a one-line description, optionally using filename details."}]}], "temperature": 1, "max_tokens": 256, "top_p": 1, "frequency_penalty": 0, "presence_penalty": 0}}
{"custom_id": "request-112", "method": "POST", "url": "/v1/chat/completions", "body": {"model": "gpt-4o", "messages": [{"role": "system", "content": [{"type": "text", "text": "Write a concise one-line painting description for Wikimedia Commons."}]}, {"role": "user", "content": [{"type": "image_url", "image_url": {"url": "https://upload.wikimedia.org/wikipedia/commons/thumb/0/00/Peter_Paul_Rubens_109.jpg/583px-Peter_Paul_Rubens_109.jpg"}}, {"type": "text", "text": "Filename: \"File:Peter Paul Rubens 109.jpg\". Provide a one-line description, optionally using filename details."}]}], "temperature": 1, "max_tokens": 256, "top_p": 1, "frequency_penalty": 0, "presence_penalty": 0}}
{"custom_id": "request-113", "method": "POST", "url": "/v1/chat/completions", "body": {"model": "gpt-4o", "messages": [{"role": "system", "content": [{"type": "text", "text": "Write a concise one-line painting description for Wikimedia Commons."}]}, {"role": "user", "content": [{"type": "image_url", "image_url": {"url": "https://upload.wikimedia.org/wikipedia/commons/thumb/0/00/Simon_%28Werkstatt%29_Vouet_001.jpg/506px-Simon_%28Werkstatt%29_Vouet_001.jpg"}}, {"type": "text", "text": "Filename: \"File:Simon (Werkstatt) Vouet 001.jpg\". Provide a one-line description, optionally using filename details."}]}], "temperature": 1, "max_tokens": 256, "top_p": 1, "frequency_penalty": 0, "presence_penalty": 0}}
{"custom_id": "request-114", "method": "POST", "url": "/v1/chat/completions", "body": {"model": "gpt-4o", "messages": [{"role": "system", "content": [{"type": "text", "text": "Write a concise one-line painting description for Wikimedia Commons."}]}, {"role": "user", "content": [{"type": "image_url", "image_url": {"url": "https://upload.wikimedia.org/wikipedia/commons/thumb/6/65/Bosschaert_Johannes_02.jpg/800px-Bosschaert_Johannes_02.jpg"}}, {"type": "text", "text": "Filename: \"File:Bosschaert Johannes 02.jpg\". Provide a one-line description, optionally using filename details."}]}], "temperature": 1, "max_tokens": 256, "top_p": 1, "frequency_penalty": 0, "presence_penalty": 0}}
{"custom_id": "request-115", "method": "POST", "url": "/v1/chat/completions", "body": {"model": "gpt-4o", "messages": [{"role": "system", "content": [{"type": "text", "text": "Write a concise one-line painting description for Wikimedia Commons."}]}, {"role": "user", "content": [{"type": "image_url", "image_url": {"url": "https://upload.wikimedia.org/wikipedia/commons/thumb/0/07/Guido_Reni_-_Girl_with_a_Rose.jpg/441px-Guido_Reni_-_Girl_with_a_Rose.jpg"}}, {"type": "text", "text": "Filename: \"File:Guido Reni - Girl with a Rose.jpg\". Provide a one-line description, optionally using filename details."}]}], "temperature": 1, "max_tokens": 256, "top_p": 1, "frequency_penalty": 0, "presence_penalty": 0}}
{"custom_id": "request-116", "method": "POST", "url": "/v1/chat/completions", "body": {"model": "gpt-4o", "messages": [{"role": "system", "content": [{"type": "text", "text": "Write a concise one-line painting description for Wikimedia Commons."}]}, {"role": "user", "content": [{"type": "image_url", "image_url": {"url": "https://upload.wikimedia.org/wikipedia/commons/thumb/c/ca/Simone_Cantarini_-_Holy_Family.jpg/438px-Simone_Cantarini_-_Holy_Family.jpg"}}, {"type": "text", "text": "Filename: \"File:Simone Cantarini - Holy Family.jpg\". Provide a one-line description, optionally using filename details."}]}], "temperature": 1, "max_tokens": 256, "top_p": 1, "frequency_penalty": 0, "presence_penalty": 0}}
{"custom_id": "request-117", "method": "POST", "url": "/v1/chat/completions", "body": {"model": "gpt-4o", "messages": [{"role": "system", "content": [{"type": "text", "text": "Write a concise one-line painting description for Wikimedia Commons."}]}, {"role": "user", "content": [{"type": "image_url", "image_url": {"url": "https://upload.wikimedia.org/wikipedia/commons/thumb/6/60/Flegel_-_Wein_und_Konfekt%2C_Maus_und_Papagei.jpg/752px-Flegel_-_Wein_und_Konfekt%2C_Maus_und_Papagei.jpg"}}, {"type": "text", "text": "Filename: \"File:Flegel - Wein und Konfekt, Maus und Papagei.jpg\". Provide a one-line description, optionally using filename details."}]}], "temperature": 1, "max_tokens": 256, "top_p": 1, "frequency_penalty": 0, "presence_penalty": 0}}
{"custom_id": "request-118", "method": "POST", "url": "/v1/chat/completions", "body": {"model": "gpt-4o", "messages": [{"role": "system", "content": [{"type": "text", "text": "Write a concise one-line painting description for Wikimedia Commons."}]}, {"role": "user", "content": [{"type": "image_url", "image_url": {"url": "https://upload.wikimedia.org/wikipedia/commons/thumb/a/ab/Guercino_Maddalena_penitente.jpg/504px-Guercino_Maddalena_penitente.jpg"}}, {"type": "text", "text": "Filename: \"File:Guercino Maddalena penitente.jpg\". Provide a one-line description, optionally using filename details."}]}], "temperature": 1, "max_tokens": 256, "top_p": 1, "frequency_penalty": 0, "presence_penalty": 0}}
{"custom_id": "request-119", "method": "POST", "url": "/v1/chat/completions", "body": {"model": "gpt-4o", "messages": [{"role": "system", "content": [{"type": "text", "text": "Write a concise one-line painting description for Wikimedia Commons."}]}, {"role": "user", "content": [{"type": "image_url", "image_url": {"url": "https://upload.wikimedia.org/wikipedia/commons/thumb/2/29/Adriaen_Brouwer_-_The_Card_Players.jpg/800px-Adriaen_Brouwer_-_The_Card_Players.jpg"}}, {"type": "text", "text": "Filename: \"File:Adriaen Brouwer - The Card Players.jpg\". Provide a one-line description, optionally using filename details."}]}], "temperature": 1, "max_tokens": 256, "top_p": 1, "frequency_penalty": 0, "presence_penalty": 0}}
{"custom_id": "request-120", "method": "POST", "url": "/v1/chat/completions", "body": {"model": "gpt-4o", "messages": [{"role": "system", "content": [{"type": "text", "text": "Write a concise one-line painting description for Wikimedia Commons."}]}, {"role": "user", "content": [{"type": "image_url", "image_url": {"url": "https://upload.wikimedia.org/wikipedia/commons/thumb/4/4b/Adriaen_Brouwer_-_In_the_Tavern_-_Alte_Pinakothek.jpg/448px-Adriaen_Brouwer_-_In_the_Tavern_-_Alte_Pinakothek.jpg"}}, {"type": "text", "text": "Filename: \"File:Adriaen Brouwer - In the Tavern - Alte Pinakothek.jpg\". Provide a one-line description, optionally using filename details."}]}], "temperature": 1, "max_tokens": 256, "top_p": 1, "frequency_penalty": 0, "presence_penalty": 0}}
{"custom_id": "request-121", "method": "POST", "url": "/v1/chat/completions", "body": {"model": "gpt-4o", "messages": [{"role": "system", "content": [{"type": "text", "text": "Write a concise one-line painting description for Wikimedia Commons."}]}, {"role": "user", "content": [{"type": "image_url", "image_url": {"url": "https://upload.wikimedia.org/wikipedia/commons/thumb/f/fa/Pieter_Neefs_the_Elder_-_Evening_Mass_in_a_Gothic_Church.jpg/800px-Pieter_Neefs_the_Elder_-_Evening_Mass_in_a_Gothic_Church.jpg"}}, {"type": "text", "text": "Filename: \"File:Pieter Neefs the Elder - Evening Mass in a Gothic Church.jpg\". Provide a one-line description, optionally using filename details."}]}], "temperature": 1, "max_tokens": 256, "top_p": 1, "frequency_penalty": 0, "presence_penalty": 0}}
{"custom_id": "request-122", "method": "POST", "url": "/v1/chat/completions", "body": {"model": "gpt-4o", "messages": [{"role": "system", "content": [{"type": "text", "text": "Write a concise one-line painting description for Wikimedia Commons."}]}, {"role": "user", "content": [{"type": "image_url", "image_url": {"url": "https://upload.wikimedia.org/wikipedia/commons/thumb/1/17/Bartholom%C3%A4us_Spranger_024.jpg/800px-Bartholom%C3%A4us_Spranger_024.jpg"}}, {"type": "text", "text": "Filename: \"File:Bartholom\u00e4us Spranger 024.jpg\". Provide a one-line description, optionally using filename details."}]}], "temperature": 1, "max_tokens": 256, "top_p": 1, "frequency_penalty": 0, "presence_penalty": 0}}
{"custom_id": "request-123", "method": "POST", "url": "/v1/chat/completions", "body": {"model": "gpt-4o", "messages": [{"role": "system", "content": [{"type": "text", "text": "Write a concise one-line painting description for Wikimedia Commons."}]}, {"role": "user", "content": [{"type": "image_url", "image_url": {"url": "https://upload.wikimedia.org/wikipedia/commons/thumb/e/e7/Frans_Francken_d._J._010.jpg/765px-Frans_Francken_d._J._010.jpg"}}, {"type": "text", "text": "Filename: \"File:Frans Francken d. J. 010.jpg\". Provide a one-line description, optionally using filename details."}]}], "temperature": 1, "max_tokens": 256, "top_p": 1, "frequency_penalty": 0, "presence_penalty": 0}}
{"custom_id": "request-124", "method": "POST", "url": "/v1/chat/completions", "body": {"model": "gpt-4o", "messages": [{"role": "system", "content": [{"type": "text", "text": "Write a concise one-line painting description for Wikimedia Commons."}]}, {"role": "user", "content": [{"type": "image_url", "image_url": {"url": "https://upload.wikimedia.org/wikipedia/commons/thumb/e/eb/Paul_de_Vos_Stilhunt.jpg/800px-Paul_de_Vos_Stilhunt.jpg"}}, {"type": "text", "text": "Filename: \"File:Paul de Vos Stilhunt.jpg\". Provide a one-line description, optionally using filename details."}]}], "temperature": 1, "max_tokens": 256, "top_p": 1, "frequency_penalty": 0, "presence_penalty": 0}}
{"custom_id": "request-125", "method": "POST", "url": "/v1/chat/completions", "body": {"model": "gpt-4o", "messages": [{"role": "system", "content": [{"type": "text", "text": "Write a concise one-line painting description for Wikimedia Commons."}]}, {"role": "user", "content": [{"type": "image_url", "image_url": {"url": "https://upload.wikimedia.org/wikipedia/commons/thumb/b/bd/Paul_de_Vos_Staghunt.jpg/800px-Paul_de_Vos_Staghunt.jpg"}}, {"type": "text", "text": "Filename: \"File:Paul de Vos Staghunt.jpg\". Provide a one-line description, optionally using filename details."}]}], "temperature": 1, "max_tokens": 256, "top_p": 1, "frequency_penalty": 0, "presence_penalty": 0}}
{"custom_id": "request-126", "method": "POST", "url": "/v1/chat/completions", "body": {"model": "gpt-4o", "messages": [{"role": "system", "content": [{"type": "text", "text": "Write a concise one-line painting description for Wikimedia Commons."}]}, {"role": "user", "content": [{"type": "image_url", "image_url": {"url": "https://upload.wikimedia.org/wikipedia/commons/thumb/3/30/Lodewijk_de_Vadder_The_Soignes_Forest.jpg/791px-Lodewijk_de_Vadder_The_Soignes_Forest.jpg"}}, {"type": "text", "text": "Filename: \"File:Lodewijk de Vadder The Soignes Forest.jpg\". Provide a one-line description, optionally using filename details."}]}], "temperature": 1, "max_tokens": 256, "top_p": 1, "frequency_penalty": 0, "presence_penalty": 0}}
{"custom_id": "request-127", "method": "POST", "url": "/v1/chat/completions", "body": {"model": "gpt-4o", "messages": [{"role": "system", "content": [{"type": "text", "text": "Write a concise one-line painting description for Wikimedia Commons."}]}, {"role": "user", "content": [{"type": "image_url", "image_url": {"url": "https://upload.wikimedia.org/wikipedia/commons/thumb/6/62/Abraham_Janssens_-_Sainte_Marie_Madeleine_renon%C3%A7ant_aux_richesses_de_ce_monde.jpg/460px-Abraham_Janssens_-_Sainte_Marie_Madeleine_renon%C3%A7ant_aux_richesses_de_ce_monde.jpg"}}, {"type": "text", "text": "Filename: \"File:Abraham Janssens - Sainte Marie Madeleine renon\u00e7ant aux richesses de ce monde.jpg\". Provide a one-line description, optionally using filename details."}]}], "temperature": 1, "max_tokens": 256, "top_p": 1, "frequency_penalty": 0, "presence_penalty": 0}}
{"custom_id": "request-128", "method": "POST", "url": "/v1/chat/completions", "body": {"model": "gpt-4o", "messages": [{"role": "system", "content": [{"type": "text", "text": "Write a concise one-line painting description for Wikimedia Commons."}]}, {"role": "user", "content": [{"type": "image_url", "image_url": {"url": "https://upload.wikimedia.org/wikipedia/commons/thumb/f/f8/Cortona_Virgin_and_Child_with_Saints_01.jpg/409px-Cortona_Virgin_and_Child_with_Saints_01.jpg"}}, {"type": "text", "text": "Filename: \"File:Cortona Virgin and Child with Saints 01.jpg\". Provide a one-line description, optionally using filename details."}]}], "temperature": 1, "max_tokens": 256, "top_p": 1, "frequency_penalty": 0, "presence_penalty": 0}}
{"custom_id": "request-129", "method": "POST", "url": "/v1/chat/completions", "body": {"model": "gpt-4o", "messages": [{"role": "system", "content": [{"type": "text", "text": "Write a concise one-line painting description for Wikimedia Commons."}]}, {"role": "user", "content": [{"type": "image_url", "image_url": {"url": "https://upload.wikimedia.org/wikipedia/commons/b/b8/Anthonis_van_Dyck_026_-_Frans_Snyders_cropped_and_downsized.jpg"}}, {"type": "text", "text": "Filename: \"File:Anthonis van Dyck 026 - Frans Snyders cropped and downsized.jpg\". Provide a one-line description, optionally using filename details."}]}], "temperature": 1, "max_tokens": 256, "top_p": 1, "frequency_penalty": 0, "presence_penalty": 0}}
{"custom_id": "request-130", "method": "POST", "url": "/v1/chat/completions", "body": {"model": "gpt-4o", "messages": [{"role": "system", "content": [{"type": "text", "text": "Write a concise one-line painting description for Wikimedia Commons."}]}, {"role": "user", "content": [{"type": "image_url", "image_url": {"url": "https://upload.wikimedia.org/wikipedia/commons/thumb/3/39/Cecco_Guardian.jpg/300px-Cecco_Guardian.jpg"}}, {"type": "text", "text": "Filename: \"File:Cecco Guardian.jpg\". Provide a one-line description, optionally using filename details."}]}], "temperature": 1, "max_tokens": 256, "top_p": 1, "frequency_penalty": 0, "presence_penalty": 0}}
{"custom_id": "request-131", "method": "POST", "url": "/v1/chat/completions", "body": {"model": "gpt-4o", "messages": [{"role": "system", "content": [{"type": "text", "text": "Write a concise one-line painting description for Wikimedia Commons."}]}, {"role": "user", "content": [{"type": "image_url", "image_url": {"url": "https://upload.wikimedia.org/wikipedia/commons/thumb/9/9c/Honthorst%2C_Gerard_van_-_Young_Drinker.jpg/521px-Honthorst%2C_Gerard_van_-_Young_Drinker.jpg"}}, {"type": "text", "text": "Filename: \"File:Honthorst, Gerard van - Young Drinker.jpg\". Provide a one-line description, optionally using filename details."}]}], "temperature": 1, "max_tokens": 256, "top_p": 1, "frequency_penalty": 0, "presence_penalty": 0}}
{"custom_id": "request-132", "method": "POST", "url": "/v1/chat/completions", "body": {"model": "gpt-4o", "messages": [{"role": "system", "content": [{"type": "text", "text": "Write a concise one-line painting description for Wikimedia Commons."}]}, {"role": "user", "content": [{"type": "image_url", "image_url": {"url": "https://upload.wikimedia.org/wikipedia/commons/thumb/7/7f/Barra%2C_Didier_-_Landscape_with_Buildings.jpg/794px-Barra%2C_Didier_-_Landscape_with_Buildings.jpg"}}, {"type": "text", "text": "Filename: \"File:Barra, Didier - Landscape with Buildings.jpg\". Provide a one-line description, optionally using filename details."}]}], "temperature": 1, "max_tokens": 256, "top_p": 1, "frequency_penalty": 0, "presence_penalty": 0}}
