link1,text1,text2
http://www.wikidata.org/entity/L36556,Kappe,"Eine Kopfbedeckung, oft aus Stoff oder Leder, die den Kopf vor Sonne oder Kälte schützt."
http://www.wikidata.org/entity/L624722,Neuhochdeutsch,"Die moderne Form der deutschen Sprache, die seit etwa dem 17. Jahrhundert gesprochen wird."
http://www.wikidata.org/entity/L813406,Fuchsbau,Ein von Füchsen gegrabener Bau als Unterschlupf und zur Aufzucht ihrer Jungen.
http://www.wikidata.org/entity/L226853,Bürohochhaus,"Ein hohes Gebäude, das hauptsächlich für Büroarbeiten genutzt wird."
http://www.wikidata.org/entity/L614689,Flexiquote,Ein anpassungsfähiges Zitatensystem oder -format.
http://www.wikidata.org/entity/L11533,Mehrfachsteckdose,"Ein Gerät, das mehrere Steckdosen bietet, um mehrere elektrische Geräte anzuschließen."
